Depth (m),Plane_Height,Volume,Area_2D
5,100,85634.46095,51918.80719
4.9,99.9,80583.89723,49221.45042
4.8,99.8,75768.81643,47084.08485
4.7,99.7,71162.92088,45022.65239
4.6,99.6,66763.88232,42930.18667
4.5,99.5,62588.50645,40479.39563
4.4,99.4,58653.13309,38270.18483
4.3,99.3,54922.76264,36393.40739
4.2,99.2,51369.21676,34711.63419
4.1,99.1,47979.00047,33111.71529
4,99,44737.20557,31783.27691
3.9,98.9,41617.5206,30620.37875
3.8,98.8,38612.94059,29469.32087
3.7,98.7,35723.73033,28319.77189
3.6,98.6,32951.88457,27123.39689
3.5,98.5,30295.47949,26023.82724
3.4,98.4,27747.29021,24940.46438
3.3,98.3,25308.57663,23831.24924
3.2,98.2,22983.00872,22677.33432
3.1,98.1,20000.160141,21424.59643
3,98,18699.08103,20148.17219
2.9,97.9,16747.70258,18904.75553
2.8,97.8,14920.99673,17621.88162
2.7,97.7,13223.54547,16328.56824
2.6,97.6,11656.26284,15003.80268
2.5,97.5,10225.70632,13614.40268
2.4,97.4,8940.839353,12100.70545
2.3,97.3,7801.076192,10740.88294
2.2,97.2,6789.545949,9542.162341
2.1,97.1,5884.614691,8568.247245
2,97,5075.888671,7655.321049
1.9,96.9,4343.896308,7014.275814
1.8,96.8,3674.356708,6365.306454
1.7,96.7,3068.706463,5760.627187
1.6,96.6,2524.108061,5128.708476
1.5,96.5,2045.051856,4480.752204
1.4,96.4,1627.451143,3886.031844
1.3,96.3,1268.476164,3303.912816
1.2,96.2,966.7140299,2745.129639
1.1,96.1,718.609577,2239.676367
1,96,517.6118261,1793.032261
0.9,95.9,360.2481907,1379.883829
0.8,95.8,238.3725025,1061.541477
0.7,95.7,146.5304485,796.7423037
0.6,95.6,79.79227765,541.6675343
0.5,95.5,37.49979335,316.2719693
0.4,95.4,14.12052135,167.0308734
0.3,95.3,3.311562232,61.06461431
0.2,95.2,0.230438667,9.159535205
0.1,95.1,0.000008344,0.003097687
0,95,0,0
