Date,Gauge: 076 UB Barron R at Picnic Crossing GS (110003a): Downstream Flow (ML.day^-1)
01/07/1889,158.33
02/07/1889,156.48
03/07/1889,155.62
04/07/1889,154.38
05/07/1889,150.73
06/07/1889,148.84
07/07/1889,147.1
08/07/1889,145.58
09/07/1889,144.01
10/07/1889,142.11
11/07/1889,140.2
12/07/1889,138.47
13/07/1889,136.85
14/07/1889,135.32
15/07/1889,133.92
16/07/1889,132.54
17/07/1889,131.13
18/07/1889,129.24
19/07/1889,127.64
20/07/1889,126.2
21/07/1889,124.78
22/07/1889,123.39
23/07/1889,122.07
24/07/1889,120.85
25/07/1889,119.67
26/07/1889,118.33
27/07/1889,116.82
28/07/1889,115.47
29/07/1889,114.24
30/07/1889,113.16
31/07/1889,112.17
01/08/1889,110.91
02/08/1889,109.71
03/08/1889,108.43
04/08/1889,107.2
05/08/1889,106.1
06/08/1889,105
07/08/1889,103.92
08/08/1889,102.87
09/08/1889,101.81
10/08/1889,100.81
11/08/1889,99.8
12/08/1889,98.79
13/08/1889,97.8
14/08/1889,96.84
15/08/1889,95.89
16/08/1889,94.95
17/08/1889,94.04
18/08/1889,93.13
19/08/1889,92.26
20/08/1889,91.36
21/08/1889,90.49
22/08/1889,89.65
23/08/1889,88.81
24/08/1889,88.05
25/08/1889,87.53
26/08/1889,86.82
27/08/1889,86.03
28/08/1889,85.38
29/08/1889,84.33
30/08/1889,83.41
31/08/1889,82.52
01/09/1889,81.76
02/09/1889,81.03
03/09/1889,80.32
04/09/1889,79.66
05/09/1889,79.03
06/09/1889,78.29
07/09/1889,77.57
08/09/1889,76.9
09/09/1889,76.24
10/09/1889,75.6
11/09/1889,74.95
12/09/1889,74.32
13/09/1889,73.67
14/09/1889,73.08
15/09/1889,72.48
16/09/1889,71.88
17/09/1889,71.28
18/09/1889,70.71
19/09/1889,70.13
20/09/1889,69.56
21/09/1889,69.02
22/09/1889,68.47
23/09/1889,67.91
24/09/1889,67.38
25/09/1889,66.86
26/09/1889,66.33
27/09/1889,65.81
28/09/1889,65.29
29/09/1889,64.78
30/09/1889,64.28
01/10/1889,63.8
02/10/1889,63.3
03/10/1889,62.85
04/10/1889,62.35
05/10/1889,61.89
06/10/1889,61.45
07/10/1889,60.97
08/10/1889,60.6
09/10/1889,60.25
10/10/1889,59.72
11/10/1889,59.24
12/10/1889,58.8
13/10/1889,58.4
14/10/1889,58.33
15/10/1889,58.39
16/10/1889,57.86
17/10/1889,57.32
18/10/1889,56.73
19/10/1889,56.05
20/10/1889,55.55
21/10/1889,55.14
22/10/1889,54.76
23/10/1889,54.38
24/10/1889,54.06
25/10/1889,53.8
26/10/1889,53.51
27/10/1889,52.94
28/10/1889,52.56
29/10/1889,52.24
30/10/1889,51.92
31/10/1889,51.6
01/11/1889,51.24
02/11/1889,50.84
03/11/1889,50.49
04/11/1889,50.18
05/11/1889,49.81
06/11/1889,49.52
07/11/1889,49.19
08/11/1889,48.89
09/11/1889,48.7
10/11/1889,49.1
11/11/1889,49.46
12/11/1889,48.3
13/11/1889,47.75
14/11/1889,47.66
15/11/1889,47.25
16/11/1889,47.3
17/11/1889,48.12
18/11/1889,177.64
19/11/1889,546.98
20/11/1889,727.66
21/11/1889,604.18
22/11/1889,641.8
23/11/1889,577.37
24/11/1889,268.88
25/11/1889,221.02
26/11/1889,215.08
27/11/1889,211.46
28/11/1889,209.14
29/11/1889,206.86
30/11/1889,201.93
01/12/1889,198.79
02/12/1889,195.76
03/12/1889,192.8
04/12/1889,189.92
05/12/1889,187.05
06/12/1889,184.3
07/12/1889,181.6
08/12/1889,179.1
09/12/1889,176.72
10/12/1889,174.14
11/12/1889,171.31
12/12/1889,169.05
13/12/1889,166.74
14/12/1889,163.92
15/12/1889,161.5
16/12/1889,159.23
17/12/1889,157.09
18/12/1889,154.91
19/12/1889,153.4
20/12/1889,152.66
21/12/1889,150.23
22/12/1889,146.44
23/12/1889,144.26
24/12/1889,142.44
25/12/1889,141.4
26/12/1889,394.88
27/12/1889,971.51
28/12/1889,1010.29
29/12/1889,726.04
30/12/1889,1348.4
31/12/1889,2103.54
01/01/1890,2454.12
02/01/1890,2307.83
03/01/1890,2128.57
04/01/1890,1845.04
05/01/1890,1270.02
06/01/1890,916.38
07/01/1890,761.87
08/01/1890,829.29
09/01/1890,1161.58
10/01/1890,1471.45
11/01/1890,1326.23
12/01/1890,964.81
13/01/1890,794.92
14/01/1890,745.43
15/01/1890,723.26
16/01/1890,708.84
17/01/1890,696.76
18/01/1890,685.76
19/01/1890,905.87
20/01/1890,1437.32
21/01/1890,1674.76
22/01/1890,1724.73
23/01/1890,1435.76
24/01/1890,1031.68
25/01/1890,903.47
26/01/1890,1047.93
27/01/1890,1174.36
28/01/1890,1527.42
29/01/1890,1915.17
30/01/1890,1607.61
31/01/1890,1210.79
01/02/1890,964.36
02/02/1890,935.61
03/02/1890,1288.55
04/02/1890,1608.85
05/02/1890,1645.84
06/02/1890,2005.49
07/02/1890,1757.38
08/02/1890,2029
09/02/1890,2818.39
10/02/1890,2514.73
11/02/1890,2217.54
12/02/1890,2659.5
13/02/1890,2491.42
14/02/1890,2364.86
15/02/1890,2277.24
16/02/1890,1808.84
17/02/1890,1434.15
18/02/1890,1214.76
19/02/1890,1086.7
20/02/1890,1182.63
21/02/1890,1495.38
22/02/1890,1458.75
23/02/1890,1219.18
24/02/1890,1064.85
25/02/1890,990.82
26/02/1890,948.45
27/02/1890,936.55
28/02/1890,957.21
01/03/1890,949.27
02/03/1890,899.82
03/03/1890,869.43
04/03/1890,848.66
05/03/1890,832.08
06/03/1890,817.95
07/03/1890,805.32
08/03/1890,792.58
09/03/1890,779.53
10/03/1890,767.54
11/03/1890,756
12/03/1890,744.78
13/03/1890,733.31
14/03/1890,721.77
15/03/1890,711.03
16/03/1890,700.48
17/03/1890,690.71
18/03/1890,863.31
19/03/1890,1350.26
20/03/1890,1553.62
21/03/1890,1288.19
22/03/1890,1073.46
23/03/1890,1132.56
24/03/1890,1290.03
25/03/1890,1913.04
26/03/1890,1894.85
27/03/1890,1644.9
28/03/1890,1229.75
29/03/1890,971.62
30/03/1890,845.42
31/03/1890,795.64
01/04/1890,769.31
02/04/1890,752.62
03/04/1890,770.98
04/04/1890,803.83
05/04/1890,747.75
06/04/1890,719.23
07/04/1890,702.27
08/04/1890,689.51
09/04/1890,678.49
10/04/1890,668.67
11/04/1890,659.59
12/04/1890,652.28
13/04/1890,659.29
14/04/1890,746.44
15/04/1890,915.83
16/04/1890,920.35
17/04/1890,750.2
18/04/1890,656.82
19/04/1890,626.13
20/04/1890,611.33
21/04/1890,600.91
22/04/1890,591.71
23/04/1890,582.69
24/04/1890,574.37
25/04/1890,566.66
26/04/1890,558.35
27/04/1890,549.86
28/04/1890,542.12
29/04/1890,534.45
30/04/1890,526.5
01/05/1890,519.08
02/05/1890,511.78
03/05/1890,504.63
04/05/1890,497.65
05/05/1890,490.62
06/05/1890,483.79
07/05/1890,477.14
08/05/1890,470.57
09/05/1890,464.16
10/05/1890,457.96
11/05/1890,452
12/05/1890,445.84
13/05/1890,439.83
14/05/1890,433.95
15/05/1890,427.91
16/05/1890,422.14
17/05/1890,416.46
18/05/1890,410.81
19/05/1890,405.43
20/05/1890,399.99
21/05/1890,394.76
22/05/1890,389.61
23/05/1890,408.99
24/05/1890,403.13
25/05/1890,397.44
26/05/1890,392.07
27/05/1890,387.42
28/05/1890,382.34
29/05/1890,376.35
30/05/1890,370.96
31/05/1890,366.23
01/06/1890,361.26
02/06/1890,356.04
03/06/1890,351.08
04/06/1890,345.99
05/06/1890,341.38
06/06/1890,336.9
07/06/1890,332.56
08/06/1890,328.3
09/06/1890,323.98
10/06/1890,319.46
11/06/1890,315.22
12/06/1890,311.12
13/06/1890,307.16
14/06/1890,303.36
15/06/1890,299.59
16/06/1890,295.8
17/06/1890,292.02
18/06/1890,288.41
19/06/1890,284.75
20/06/1890,281.16
21/06/1890,277.76
22/06/1890,274.28
23/06/1890,270.94
24/06/1890,267.66
25/06/1890,264.45
26/06/1890,261.28
27/06/1890,258.2
28/06/1890,255.13
29/06/1890,252.16
30/06/1890,249.18
01/07/1890,246.28
02/07/1890,243.44
03/07/1890,240.64
04/07/1890,237.89
05/07/1890,235.18
06/07/1890,232.53
07/07/1890,229.9
08/07/1890,227.34
09/07/1890,224.82
10/07/1890,222.31
11/07/1890,219.87
12/07/1890,217.47
13/07/1890,215.11
14/07/1890,212.78
15/07/1890,210.82
16/07/1890,209.2
17/07/1890,206.91
18/07/1890,204.27
19/07/1890,201.71
20/07/1890,199.58
21/07/1890,197.53
22/07/1890,195.55
23/07/1890,193.5
24/07/1890,191.46
25/07/1890,189.56
26/07/1890,187.67
27/07/1890,185.73
28/07/1890,183.85
29/07/1890,182.01
30/07/1890,180.22
31/07/1890,178.5
01/08/1890,177.31
02/08/1890,175.88
03/08/1890,173.35
04/08/1890,171.62
05/08/1890,169.96
06/08/1890,168.35
07/08/1890,166.74
08/08/1890,165.2
09/08/1890,163.62
10/08/1890,162.11
11/08/1890,160.58
12/08/1890,159.13
13/08/1890,157.65
14/08/1890,156.22
15/08/1890,154.8
16/08/1890,153.41
17/08/1890,152.04
18/08/1890,150.67
19/08/1890,149.35
20/08/1890,148.02
21/08/1890,146.74
22/08/1890,145.45
23/08/1890,144.16
24/08/1890,143.08
25/08/1890,142.24
26/08/1890,141.03
27/08/1890,139.47
28/08/1890,138.15
29/08/1890,136.96
30/08/1890,135.81
31/08/1890,134.74
01/09/1890,133.62
02/09/1890,132.53
03/09/1890,131.54
04/09/1890,130.57
05/09/1890,129.57
06/09/1890,128.62
07/09/1890,127.46
08/09/1890,126.17
09/09/1890,125.16
10/09/1890,124.17
11/09/1890,123.16
12/09/1890,122.18
13/09/1890,121.24
14/09/1890,120.26
15/09/1890,119.34
16/09/1890,118.44
17/09/1890,117.54
18/09/1890,116.64
19/09/1890,116.02
20/09/1890,116.17
21/09/1890,116.44
22/09/1890,114.95
23/09/1890,112.47
24/09/1890,111.56
25/09/1890,110.75
26/09/1890,109.94
27/09/1890,109.05
28/09/1890,108.25
29/09/1890,107.46
30/09/1890,106.68
01/10/1890,105.92
02/10/1890,105.14
03/10/1890,104.4
04/10/1890,103.66
05/10/1890,102.93
06/10/1890,102.2
07/10/1890,101.5
08/10/1890,100.8
09/10/1890,100.08
10/10/1890,99.41
11/10/1890,98.72
12/10/1890,98.22
13/10/1890,98.47
14/10/1890,98.21
15/10/1890,96.52
16/10/1890,96.16
17/10/1890,94.79
18/10/1890,94.12
19/10/1890,93.5
20/10/1890,92.88
21/10/1890,92.27
22/10/1890,91.65
23/10/1890,91.06
24/10/1890,90.45
25/10/1890,89.88
26/10/1890,89.29
27/10/1890,88.89
28/10/1890,88.57
29/10/1890,87.83
30/10/1890,87.08
31/10/1890,86.47
01/11/1890,85.91
02/11/1890,85.4
03/11/1890,85.07
04/11/1890,84.75
05/11/1890,84.05
06/11/1890,83.72
07/11/1890,83.35
08/11/1890,82.77
09/11/1890,82.05
10/11/1890,81.27
11/11/1890,80.71
12/11/1890,80.23
13/11/1890,79.73
14/11/1890,79.25
15/11/1890,78.76
16/11/1890,78.76
17/11/1890,78.75
18/11/1890,77.4
19/11/1890,76.9
20/11/1890,76.45
21/11/1890,75.98
22/11/1890,75.54
23/11/1890,75.09
24/11/1890,74.84
25/11/1890,74.61
26/11/1890,74.4
27/11/1890,74.45
28/11/1890,73.51
29/11/1890,74
30/11/1890,73.15
01/12/1890,71.92
02/12/1890,71.59
03/12/1890,71.57
04/12/1890,71.91
05/12/1890,70.36
06/12/1890,69.91
07/12/1890,69.26
08/12/1890,69.25
09/12/1890,69.36
10/12/1890,68.48
11/12/1890,67.92
12/12/1890,67.32
13/12/1890,66.94
14/12/1890,66.56
15/12/1890,66.18
16/12/1890,65.91
17/12/1890,65.6
18/12/1890,65.18
19/12/1890,65.67
20/12/1890,66.04
21/12/1890,64.21
22/12/1890,63.72
23/12/1890,63.35
24/12/1890,62.99
25/12/1890,62.65
26/12/1890,62.34
27/12/1890,62.02
28/12/1890,61.64
29/12/1890,61.32
30/12/1890,60.97
31/12/1890,60.65
01/01/1891,60.33
02/01/1891,59.99
03/01/1891,59.68
04/01/1891,59.48
05/01/1891,59.21
06/01/1891,58.79
07/01/1891,58.67
08/01/1891,58.68
09/01/1891,58.43
10/01/1891,58.76
11/01/1891,59.11
12/01/1891,58.41
13/01/1891,63.92
14/01/1891,77.06
15/01/1891,66.44
16/01/1891,65.23
17/01/1891,64.8
18/01/1891,65.19
19/01/1891,240.29
20/01/1891,574.49
21/01/1891,442.22
22/01/1891,157.15
23/01/1891,142.85
24/01/1891,141.36
25/01/1891,139.63
26/01/1891,231.36
27/01/1891,329.1
28/01/1891,211.91
29/01/1891,252.7
30/01/1891,173.35
31/01/1891,167.76
01/02/1891,165.08
02/02/1891,162.84
03/02/1891,161.17
04/02/1891,159.56
05/02/1891,212.13
06/02/1891,447.69
07/02/1891,816.68
08/02/1891,1084.48
09/02/1891,1505
10/02/1891,2486.41
11/02/1891,3431.47
12/02/1891,3671.56
13/02/1891,3777.29
14/02/1891,4063.21
15/02/1891,4163.97
16/02/1891,3361.39
17/02/1891,2739.91
18/02/1891,2685.88
19/02/1891,2752.26
20/02/1891,2571.79
21/02/1891,3023.31
22/02/1891,4268.33
23/02/1891,4621.26
24/02/1891,3713.4
25/02/1891,2936.97
26/02/1891,2261.36
27/02/1891,1820.51
28/02/1891,1539.7
01/03/1891,1356.69
02/03/1891,1238.18
03/03/1891,1170.23
04/03/1891,1124.44
05/03/1891,1089.92
06/03/1891,1064.22
07/03/1891,1042.01
08/03/1891,1022.77
09/03/1891,1004.83
10/03/1891,988.06
11/03/1891,971.95
12/03/1891,956.25
13/03/1891,940.97
14/03/1891,926.14
15/03/1891,911.78
16/03/1891,897.43
17/03/1891,883.51
18/03/1891,870.15
19/03/1891,918.33
20/03/1891,1183.45
21/03/1891,1479.2
22/03/1891,1372.22
23/03/1891,1084.32
24/03/1891,924.93
25/03/1891,853.31
26/03/1891,817.08
27/03/1891,987.82
28/03/1891,1309.69
29/03/1891,1161.77
30/03/1891,974.23
31/03/1891,835.38
01/04/1891,782.84
02/04/1891,755.93
03/04/1891,738.57
04/04/1891,830.79
05/04/1891,1423.12
06/04/1891,2729.39
07/04/1891,3698.45
08/04/1891,3120.01
09/04/1891,2077.14
10/04/1891,1501.36
11/04/1891,1184.85
12/04/1891,1017.42
13/04/1891,941.18
14/04/1891,898.29
15/04/1891,871.28
16/04/1891,851.84
17/04/1891,836.05
18/04/1891,821.95
19/04/1891,808.93
20/04/1891,796.92
21/04/1891,785.65
22/04/1891,773.43
23/04/1891,760.72
24/04/1891,748.98
25/04/1891,737.83
26/04/1891,726.9
27/04/1891,746.39
28/04/1891,792.28
29/04/1891,762.76
30/04/1891,712.43
01/05/1891,689.12
02/05/1891,675.48
03/05/1891,665.68
04/05/1891,667.4
05/05/1891,674.55
06/05/1891,663.23
07/05/1891,635.85
08/05/1891,621.12
09/05/1891,610.6
10/05/1891,601.32
11/05/1891,592.51
12/05/1891,583.94
13/05/1891,575.53
14/05/1891,567.3
15/05/1891,559.33
16/05/1891,551.56
17/05/1891,543.86
18/05/1891,536.6
19/05/1891,528.7
20/05/1891,520.97
21/05/1891,513.75
22/05/1891,507.23
23/05/1891,500.7
24/05/1891,493.53
25/05/1891,584.79
26/05/1891,809.92
27/05/1891,808.59
28/05/1891,621.34
29/05/1891,527.06
30/05/1891,494.34
31/05/1891,483.21
01/06/1891,475.9
02/06/1891,469.3
03/06/1891,462.92
04/06/1891,456.6
05/06/1891,450.55
06/06/1891,444.71
07/06/1891,438.66
08/06/1891,433.07
09/06/1891,427.63
10/06/1891,421.11
11/06/1891,415.48
12/06/1891,410.01
13/06/1891,404.65
14/06/1891,399.32
15/06/1891,394.08
16/06/1891,414.03
17/06/1891,408.28
18/06/1891,402.52
19/06/1891,396.92
20/06/1891,391.37
21/06/1891,385.88
22/06/1891,380.45
23/06/1891,375.19
24/06/1891,370.03
25/06/1891,364.99
26/06/1891,360.02
27/06/1891,355.15
28/06/1891,350.38
29/06/1891,345.68
30/06/1891,341.1
01/07/1891,336.6
02/07/1891,332.22
03/07/1891,327.81
04/07/1891,323.52
05/07/1891,319.34
06/07/1891,315.21
07/07/1891,311.19
08/07/1891,307.23
09/07/1891,303.32
10/07/1891,299.53
11/07/1891,295.81
12/07/1891,292.05
13/07/1891,288.44
14/07/1891,284.89
15/07/1891,281.39
16/07/1891,277.96
17/07/1891,274.61
18/07/1891,271.35
19/07/1891,268
20/07/1891,264.9
21/07/1891,262.09
22/07/1891,259.16
23/07/1891,255.68
24/07/1891,252.56
25/07/1891,249.61
26/07/1891,246.76
27/07/1891,243.91
28/07/1891,241.13
29/07/1891,238.38
30/07/1891,235.75
31/07/1891,233.25
01/08/1891,230.74
02/08/1891,228.2
03/08/1891,225.74
04/08/1891,222.96
05/08/1891,220.47
06/08/1891,218.08
07/08/1891,215.7
08/08/1891,213.39
09/08/1891,211.15
10/08/1891,208.95
11/08/1891,206.7
12/08/1891,204.54
13/08/1891,202.41
14/08/1891,200.27
15/08/1891,198.21
16/08/1891,196.15
17/08/1891,194.14
18/08/1891,192.17
19/08/1891,190.23
20/08/1891,188.31
21/08/1891,186.44
22/08/1891,184.56
23/08/1891,182.76
24/08/1891,180.96
25/08/1891,179.2
26/08/1891,177.44
27/08/1891,175.74
28/08/1891,174.05
29/08/1891,172.39
30/08/1891,170.96
31/08/1891,169.77
01/09/1891,168.13
02/09/1891,166.34
03/09/1891,164.48
04/09/1891,162.92
05/09/1891,161.48
06/09/1891,160
07/09/1891,158.47
08/09/1891,157.04
09/09/1891,155.6
10/09/1891,154.22
11/09/1891,152.84
12/09/1891,151.5
13/09/1891,150.17
14/09/1891,148.83
15/09/1891,147.55
16/09/1891,146.26
17/09/1891,145
18/09/1891,143.75
19/09/1891,142.53
20/09/1891,141.32
21/09/1891,140.12
22/09/1891,138.94
23/09/1891,137.79
24/09/1891,136.62
25/09/1891,135.48
26/09/1891,134.38
27/09/1891,133.34
28/09/1891,132.43
29/09/1891,131.88
30/09/1891,131.09
01/10/1891,129.34
02/10/1891,128.13
03/10/1891,127
04/10/1891,125.97
05/10/1891,124.98
06/10/1891,123.99
07/10/1891,123.01
08/10/1891,122.06
09/10/1891,121.13
10/10/1891,120.2
11/10/1891,119.27
12/10/1891,118.37
13/10/1891,117.47
14/10/1891,116.57
15/10/1891,115.7
16/10/1891,114.85
17/10/1891,114.19
18/10/1891,113.7
19/10/1891,112.96
20/10/1891,111.99
21/10/1891,110.78
22/10/1891,110.03
23/10/1891,109.32
24/10/1891,108.47
25/10/1891,107.77
26/10/1891,107.02
27/10/1891,106.16
28/10/1891,105.29
29/10/1891,104.49
30/10/1891,103.74
31/10/1891,103.01
01/11/1891,102.28
02/11/1891,101.62
03/11/1891,101.58
04/11/1891,101.48
05/11/1891,99.57
06/11/1891,98.86
07/11/1891,98.27
08/11/1891,97.72
09/11/1891,97.19
10/11/1891,96.44
11/11/1891,95.64
12/11/1891,94.92
13/11/1891,94.3
14/11/1891,93.83
15/11/1891,93.42
16/11/1891,92.78
17/11/1891,92.12
18/11/1891,91.44
19/11/1891,90.72
20/11/1891,90.06
21/11/1891,89.49
22/11/1891,89.06
23/11/1891,88.65
24/11/1891,87.86
25/11/1891,87.24
26/11/1891,86.69
27/11/1891,86.2
28/11/1891,85.67
29/11/1891,85.04
30/11/1891,84.51
01/12/1891,83.99
02/12/1891,83.48
03/12/1891,83.04
04/12/1891,83.02
05/12/1891,83.71
06/12/1891,83.23
07/12/1891,81.13
08/12/1891,156.46
09/12/1891,240.68
10/12/1891,110.14
11/12/1891,103.45
12/12/1891,102.56
13/12/1891,102.29
14/12/1891,100.15
15/12/1891,99.63
16/12/1891,99.1
17/12/1891,97.62
18/12/1891,97.12
19/12/1891,96.48
20/12/1891,95.17
21/12/1891,94.28
22/12/1891,93.5
23/12/1891,92.73
24/12/1891,92.02
25/12/1891,91.28
26/12/1891,90.52
27/12/1891,89.8
28/12/1891,89.07
29/12/1891,88.35
30/12/1891,87.68
31/12/1891,86.99
01/01/1892,86.29
02/01/1892,85.62
03/01/1892,84.96
04/01/1892,84.28
05/01/1892,83.64
06/01/1892,83.05
07/01/1892,82.4
08/01/1892,81.8
09/01/1892,81.31
10/01/1892,80.83
11/01/1892,80.02
12/01/1892,79.36
13/01/1892,78.76
14/01/1892,78.44
15/01/1892,78.13
16/01/1892,77.08
17/01/1892,76.52
18/01/1892,76.19
19/01/1892,166.52
20/01/1892,955.4
21/01/1892,2718.57
22/01/1892,3592.89
23/01/1892,2543.83
24/01/1892,1251.92
25/01/1892,1013.34
26/01/1892,1706.75
27/01/1892,2992.36
28/01/1892,3957.75
29/01/1892,3472.25
30/01/1892,2418
31/01/1892,2244.34
01/02/1892,2267.56
02/02/1892,1765.94
03/02/1892,1337.54
04/02/1892,1110.8
05/02/1892,989.31
06/02/1892,934.78
07/02/1892,903.03
08/02/1892,881.52
09/02/1892,864.49
10/02/1892,849.29
11/02/1892,835.3
12/02/1892,821.72
13/02/1892,808.58
14/02/1892,795.73
15/02/1892,783.11
16/02/1892,770.73
17/02/1892,758.59
18/02/1892,746.71
19/02/1892,735.01
20/02/1892,723.5
21/02/1892,712.42
22/02/1892,702.38
23/02/1892,846.57
24/02/1892,1745.3
25/02/1892,2970.99
26/02/1892,2617.54
27/02/1892,1578.61
28/02/1892,1097.27
29/02/1892,882.53
01/03/1892,802.56
02/03/1892,810.86
03/03/1892,794.98
04/03/1892,749.39
05/03/1892,884.37
06/03/1892,1091.28
07/03/1892,1042.9
08/03/1892,1213.17
09/03/1892,1136.47
10/03/1892,923.12
11/03/1892,805.62
12/03/1892,760.31
13/03/1892,751.24
14/03/1892,718.18
15/03/1892,699.79
16/03/1892,686.11
17/03/1892,674.95
18/03/1892,664.68
19/03/1892,654.87
20/03/1892,644.48
21/03/1892,634.96
22/03/1892,625.7
23/03/1892,615.75
24/03/1892,606.43
25/03/1892,597.64
26/03/1892,588.99
27/03/1892,579.74
28/03/1892,571.16
29/03/1892,562.75
30/03/1892,554.75
31/03/1892,547.26
01/04/1892,539.16
02/04/1892,530.65
03/04/1892,522.91
04/04/1892,515.55
05/04/1892,508.82
06/04/1892,501.51
07/04/1892,493.51
08/04/1892,486.66
09/04/1892,480.12
10/04/1892,473.1
11/04/1892,466.06
12/04/1892,459.49
13/04/1892,453.1
14/04/1892,446.87
15/04/1892,440.48
16/04/1892,434.33
17/04/1892,428.33
18/04/1892,422.48
19/04/1892,416.86
20/04/1892,411.18
21/04/1892,405.42
22/04/1892,399.85
23/04/1892,394.4
24/04/1892,414.18
25/04/1892,408.16
26/04/1892,402.32
27/04/1892,397.57
28/04/1892,420.93
29/04/1892,536.1
30/04/1892,510
01/05/1892,405.93
02/05/1892,395.64
03/05/1892,389.33
04/05/1892,383.64
05/05/1892,378.11
06/05/1892,372.65
07/05/1892,367.32
08/05/1892,362.1
09/05/1892,357.22
10/05/1892,352.76
11/05/1892,347.97
12/05/1892,342.63
13/05/1892,337.81
14/05/1892,333.18
15/05/1892,328.8
16/05/1892,324.91
17/05/1892,320.26
18/05/1892,315.12
19/05/1892,310.8
20/05/1892,306.67
21/05/1892,302.57
22/05/1892,298.59
23/05/1892,294.68
24/05/1892,290.81
25/05/1892,287.36
26/05/1892,284.36
27/05/1892,280.53
28/05/1892,276.77
29/05/1892,273.62
30/05/1892,269.91
31/05/1892,265.79
01/06/1892,262.38
02/06/1892,259.07
03/06/1892,255.87
04/06/1892,252.76
05/06/1892,249.8
06/06/1892,246.9
07/06/1892,243.92
08/06/1892,240.81
09/06/1892,237.76
10/06/1892,234.89
11/06/1892,232.09
12/06/1892,229.41
13/06/1892,226.91
14/06/1892,224.58
15/06/1892,222.31
16/06/1892,219.69
17/06/1892,216.37
18/06/1892,213.88
19/06/1892,211.51
20/06/1892,209.16
21/06/1892,206.8
22/06/1892,204.49
23/06/1892,202.15
24/06/1892,199.86
25/06/1892,197.78
26/06/1892,196.1
27/06/1892,194.25
28/06/1892,191.64
29/06/1892,189.44
30/06/1892,187.38
01/07/1892,185.47
02/07/1892,183.54
03/07/1892,181.5
04/07/1892,179.55
05/07/1892,177.62
06/07/1892,175.75
07/07/1892,173.93
08/07/1892,172.14
09/07/1892,170.37
10/07/1892,168.67
11/07/1892,166.95
12/07/1892,165.31
13/07/1892,163.63
14/07/1892,162.03
15/07/1892,160.41
16/07/1892,158.87
17/07/1892,157.31
18/07/1892,155.8
19/07/1892,154.35
20/07/1892,152.96
21/07/1892,151.44
22/07/1892,150.17
23/07/1892,148.9
24/07/1892,147.47
25/07/1892,146.01
26/07/1892,144.45
27/07/1892,143.12
28/07/1892,141.81
29/07/1892,140.5
30/07/1892,139.27
31/07/1892,137.96
01/08/1892,136.7
02/08/1892,135.47
03/08/1892,134.54
04/08/1892,133.72
05/08/1892,132.14
06/08/1892,130.82
07/08/1892,129.62
08/08/1892,128.5
09/08/1892,127.37
10/08/1892,126.29
11/08/1892,125.22
12/08/1892,124.17
13/08/1892,123.13
14/08/1892,122.11
15/08/1892,121.08
16/08/1892,120.14
17/08/1892,119.22
18/08/1892,118.12
19/08/1892,117.12
20/08/1892,116.18
21/08/1892,115.23
22/08/1892,114.32
23/08/1892,113.38
24/08/1892,112.5
25/08/1892,111.6
26/08/1892,110.71
27/08/1892,109.86
28/08/1892,109.01
29/08/1892,108.17
30/08/1892,107.3
31/08/1892,106.48
01/09/1892,105.67
02/09/1892,104.87
03/09/1892,104.08
04/09/1892,103.29
05/09/1892,102.52
06/09/1892,101.77
07/09/1892,100.99
08/09/1892,100.24
09/09/1892,99.49
10/09/1892,98.77
11/09/1892,98.05
12/09/1892,97.36
13/09/1892,96.62
14/09/1892,95.95
15/09/1892,95.26
16/09/1892,94.56
17/09/1892,93.9
18/09/1892,93.23
19/09/1892,92.56
20/09/1892,91.91
21/09/1892,91.27
22/09/1892,90.68
23/09/1892,90.1
24/09/1892,89.38
25/09/1892,88.79
26/09/1892,88.16
27/09/1892,87.57
28/09/1892,86.96
29/09/1892,86.39
30/09/1892,85.78
01/10/1892,85.22
02/10/1892,84.65
03/10/1892,84.63
04/10/1892,84.73
05/10/1892,83.29
06/10/1892,82.46
07/10/1892,81.94
08/10/1892,81.38
09/10/1892,80.83
10/10/1892,80.31
11/10/1892,79.8
12/10/1892,79.29
13/10/1892,78.8
14/10/1892,78.32
15/10/1892,77.81
16/10/1892,77.33
17/10/1892,76.99
18/10/1892,76.64
19/10/1892,75.95
20/10/1892,75.41
21/10/1892,74.99
22/10/1892,74.44
23/10/1892,74
24/10/1892,73.54
25/10/1892,73.08
26/10/1892,72.67
27/10/1892,72.58
28/10/1892,72.54
29/10/1892,71.81
30/10/1892,71.45
31/10/1892,70.7
01/11/1892,70.11
02/11/1892,69.63
03/11/1892,69.21
04/11/1892,68.8
05/11/1892,68.4
06/11/1892,67.99
07/11/1892,67.59
08/11/1892,67.18
09/11/1892,66.79
10/11/1892,66.41
11/11/1892,66.31
12/11/1892,66.41
13/11/1892,65.63
14/11/1892,64.9
15/11/1892,64.5
16/11/1892,64.34
17/11/1892,64.59
18/11/1892,64.52
19/11/1892,63.58
20/11/1892,62.87
21/11/1892,62.39
22/11/1892,62
23/11/1892,61.88
24/11/1892,62
25/11/1892,61.36
26/11/1892,60.67
27/11/1892,61.14
28/11/1892,61.67
29/11/1892,59.92
30/11/1892,59.7
01/12/1892,59.65
02/12/1892,58.91
03/12/1892,58.33
04/12/1892,58.02
05/12/1892,57.72
06/12/1892,57.44
07/12/1892,58.38
08/12/1892,59.45
09/12/1892,57.08
10/12/1892,56.65
11/12/1892,56.65
12/12/1892,55.71
13/12/1892,55.57
14/12/1892,55.13
15/12/1892,55.23
16/12/1892,55.13
17/12/1892,55.05
18/12/1892,55.74
19/12/1892,53.97
20/12/1892,53.6
21/12/1892,52.98
22/12/1892,52.77
23/12/1892,52.75
24/12/1892,52.57
25/12/1892,51.87
26/12/1892,51.63
27/12/1892,51.32
28/12/1892,51.27
29/12/1892,51.2
30/12/1892,50.91
31/12/1892,50.65
01/01/1893,50.15
02/01/1893,49.78
03/01/1893,49.46
04/01/1893,49.3
05/01/1893,49.24
06/01/1893,49.71
07/01/1893,50.11
08/01/1893,48.34
09/01/1893,48.07
10/01/1893,47.72
11/01/1893,47.48
12/01/1893,47.23
13/01/1893,46.97
14/01/1893,46.81
15/01/1893,46.63
16/01/1893,46.41
17/01/1893,46.24
18/01/1893,45.91
19/01/1893,45.8
20/01/1893,45.73
21/01/1893,45.6
22/01/1893,44.93
23/01/1893,44.7
24/01/1893,45.05
25/01/1893,46.7
26/01/1893,197.77
27/01/1893,424.36
28/01/1893,254.91
29/01/1893,112.02
30/01/1893,106.88
31/01/1893,104.73
01/02/1893,103.32
02/02/1893,102.06
03/02/1893,101
04/02/1893,99.92
05/02/1893,98.49
06/02/1893,97.36
07/02/1893,96.11
08/02/1893,95.15
09/02/1893,94.28
10/02/1893,93.16
11/02/1893,203.21
12/02/1893,327.58
13/02/1893,130.53
14/02/1893,234.71
15/02/1893,359.84
16/02/1893,164.17
17/02/1893,171.23
18/02/1893,154.6
19/02/1893,154.73
20/02/1893,255.4
21/02/1893,464.33
22/02/1893,617.57
23/02/1893,860.62
24/02/1893,820.96
25/02/1893,480.61
26/02/1893,323.14
27/02/1893,310.84
28/02/1893,308.89
01/03/1893,304.4
02/03/1893,298.54
03/03/1893,293.86
04/03/1893,289.5
05/03/1893,284.61
06/03/1893,279.77
07/03/1893,275.1
08/03/1893,270.62
09/03/1893,266.34
10/03/1893,262.21
11/03/1893,258.18
12/03/1893,254.08
13/03/1893,250.92
14/03/1893,248.43
15/03/1893,243.88
16/03/1893,421.05
17/03/1893,711.87
18/03/1893,487.49
19/03/1893,324.59
20/03/1893,289.4
21/03/1893,286.88
22/03/1893,282.08
23/03/1893,277.6
24/03/1893,273.37
25/03/1893,268.96
26/03/1893,264.54
27/03/1893,260.44
28/03/1893,256.45
29/03/1893,252.43
30/03/1893,248.5
31/03/1893,244.72
01/04/1893,240.9
02/04/1893,237.2
03/04/1893,233.61
04/04/1893,230.08
05/04/1893,226.64
06/04/1893,223.22
07/04/1893,219.91
08/04/1893,216.62
09/04/1893,213.43
10/04/1893,210.29
11/04/1893,207.21
12/04/1893,204.19
13/04/1893,201.24
14/04/1893,198.33
15/04/1893,195.45
16/04/1893,192.66
17/04/1893,189.93
18/04/1893,187.23
19/04/1893,184.58
20/04/1893,181.98
21/04/1893,179.43
22/04/1893,176.97
23/04/1893,174.52
24/04/1893,172.11
25/04/1893,169.79
26/04/1893,167.43
27/04/1893,165.17
28/04/1893,162.91
29/04/1893,160.72
30/04/1893,158.55
01/05/1893,156.45
02/05/1893,154.39
03/05/1893,152.34
04/05/1893,150.34
05/05/1893,148.36
06/05/1893,146.46
07/05/1893,144.53
08/05/1893,142.71
09/05/1893,140.86
10/05/1893,139.08
11/05/1893,137.3
12/05/1893,135.58
13/05/1893,133.87
14/05/1893,132.21
15/05/1893,130.61
16/05/1893,129.11
17/05/1893,127.84
18/05/1893,126.48
19/05/1893,124.32
20/05/1893,122.77
21/05/1893,121.33
22/05/1893,120.03
23/05/1893,118.91
24/05/1893,117.74
25/05/1893,116.15
26/05/1893,114.54
27/05/1893,113.2
28/05/1893,112.08
29/05/1893,110.81
30/05/1893,109.31
31/05/1893,107.99
01/06/1893,106.65
02/06/1893,105.4
03/06/1893,104.22
04/06/1893,103.05
05/06/1893,101.99
06/06/1893,101.13
07/06/1893,100.18
08/06/1893,98.93
09/06/1893,97.69
10/06/1893,96.5
11/06/1893,95.42
12/06/1893,94.39
13/06/1893,93.37
14/06/1893,92.4
15/06/1893,91.43
16/06/1893,90.45
17/06/1893,89.52
18/06/1893,88.6
19/06/1893,87.69
20/06/1893,86.79
21/06/1893,85.9
22/06/1893,85.01
23/06/1893,84.18
24/06/1893,83.34
25/06/1893,82.6
26/06/1893,81.88
27/06/1893,80.88
28/06/1893,80.08
29/06/1893,79.31
30/06/1893,78.55
01/07/1893,77.78
02/07/1893,77.03
03/07/1893,76.38
04/07/1893,75.65
05/07/1893,74.87
06/07/1893,74.17
07/07/1893,73.48
08/07/1893,72.8
09/07/1893,72.11
10/07/1893,71.45
11/07/1893,70.83
12/07/1893,70.16
13/07/1893,69.54
14/07/1893,68.9
15/07/1893,68.29
16/07/1893,67.67
17/07/1893,67.08
18/07/1893,66.5
19/07/1893,65.91
20/07/1893,65.34
21/07/1893,65.07
22/07/1893,64.97
23/07/1893,64.08
24/07/1893,63.22
25/07/1893,62.67
26/07/1893,62.07
27/07/1893,61.56
28/07/1893,61.02
29/07/1893,60.52
30/07/1893,60.02
31/07/1893,59.54
01/08/1893,59.06
02/08/1893,58.56
03/08/1893,58.09
04/08/1893,57.64
05/08/1893,57.17
06/08/1893,56.72
07/08/1893,56.25
08/08/1893,55.83
09/08/1893,55.39
10/08/1893,54.95
11/08/1893,54.55
12/08/1893,54.86
13/08/1893,55.81
14/08/1893,55.11
15/08/1893,53.67
16/08/1893,52.74
17/08/1893,52.29
18/08/1893,51.97
19/08/1893,51.82
20/08/1893,51.59
21/08/1893,51.2
22/08/1893,51.29
23/08/1893,275.36
24/08/1893,497.87
25/08/1893,125.47
26/08/1893,107.05
27/08/1893,103.9
28/08/1893,102.35
29/08/1893,101.04
30/08/1893,99.77
31/08/1893,98.55
01/09/1893,97.31
02/09/1893,96.09
03/09/1893,94.92
04/09/1893,93.76
05/09/1893,92.62
06/09/1893,91.52
07/09/1893,90.41
08/09/1893,89.35
09/09/1893,88.29
10/09/1893,87.25
11/09/1893,86.23
12/09/1893,85.22
13/09/1893,84.22
14/09/1893,83.25
15/09/1893,82.32
16/09/1893,81.37
17/09/1893,80.44
18/09/1893,79.54
19/09/1893,78.64
20/09/1893,77.75
21/09/1893,76.91
22/09/1893,76.15
23/09/1893,75.42
24/09/1893,74.51
25/09/1893,73.63
26/09/1893,72.76
27/09/1893,71.98
28/09/1893,71.32
29/09/1893,70.69
30/09/1893,69.79
01/10/1893,69
02/10/1893,68.27
03/10/1893,67.64
04/10/1893,67.06
05/10/1893,67.18
06/10/1893,67.45
07/10/1893,65.21
08/10/1893,64.65
09/10/1893,63.52
10/10/1893,62.87
11/10/1893,62.23
12/10/1893,61.61
13/10/1893,61
14/10/1893,60.5
15/10/1893,60.64
16/10/1893,60.6
17/10/1893,58.75
18/10/1893,58.1
19/10/1893,57.53
20/10/1893,57
21/10/1893,56.46
22/10/1893,56.05
23/10/1893,55.64
24/10/1893,54.88
25/10/1893,54.36
26/10/1893,53.9
27/10/1893,53.51
28/10/1893,53.07
29/10/1893,52.44
30/10/1893,52.06
31/10/1893,51.73
01/11/1893,51.08
02/11/1893,50.58
03/11/1893,50.2
04/11/1893,49.82
05/11/1893,49.27
06/11/1893,48.87
07/11/1893,48.53
08/11/1893,48.25
09/11/1893,47.74
10/11/1893,47.35
11/11/1893,47.31
12/11/1893,46.87
13/11/1893,46.28
14/11/1893,46.33
15/11/1893,45.91
16/11/1893,45.11
17/11/1893,44.94
18/11/1893,44.34
19/11/1893,43.81
20/11/1893,43.43
21/11/1893,43.07
22/11/1893,42.76
23/11/1893,43.44
24/11/1893,44.13
25/11/1893,41.96
26/11/1893,41.51
27/11/1893,41.1
28/11/1893,40.76
29/11/1893,40.63
30/11/1893,40.48
01/12/1893,39.91
02/12/1893,39.99
03/12/1893,40.46
04/12/1893,40.61
05/12/1893,39.93
06/12/1893,38.91
07/12/1893,38.37
08/12/1893,37.88
09/12/1893,37.53
10/12/1893,37.26
11/12/1893,37.01
12/12/1893,37.22
13/12/1893,38.51
14/12/1893,38.34
15/12/1893,42.51
16/12/1893,42.81
17/12/1893,42.99
18/12/1893,41.94
19/12/1893,41.4
20/12/1893,41.04
21/12/1893,40.78
22/12/1893,40.72
23/12/1893,40.5
24/12/1893,39.96
25/12/1893,39.45
26/12/1893,39.05
27/12/1893,38.7
28/12/1893,38.41
29/12/1893,38.18
30/12/1893,38.28
31/12/1893,38.92
01/01/1894,38.94
02/01/1894,37.56
03/01/1894,36.97
04/01/1894,36.84
05/01/1894,36.31
06/01/1894,35.77
07/01/1894,35.51
08/01/1894,35.4
09/01/1894,36.1
10/01/1894,36.62
11/01/1894,72.15
12/01/1894,114.14
13/01/1894,136.17
14/01/1894,547.07
15/01/1894,1004.24
16/01/1894,871.64
17/01/1894,847.64
18/01/1894,1030.78
19/01/1894,1182.33
20/01/1894,1071.9
21/01/1894,1088.51
22/01/1894,1189.08
23/01/1894,1018.36
24/01/1894,674.23
25/01/1894,720.88
26/01/1894,1015.04
27/01/1894,748.83
28/01/1894,572.97
29/01/1894,847.38
30/01/1894,1329.17
31/01/1894,999.2
01/02/1894,735.26
02/02/1894,796.11
03/02/1894,835.88
04/02/1894,920.93
05/02/1894,1326.87
06/02/1894,1034.66
07/02/1894,769.27
08/02/1894,667.21
09/02/1894,642.17
10/02/1894,629.33
11/02/1894,618.94
12/02/1894,608.67
13/02/1894,598.93
14/02/1894,590.42
15/02/1894,582.32
16/02/1894,571.55
17/02/1894,562.11
18/02/1894,552.92
19/02/1894,544.26
20/02/1894,535.82
21/02/1894,528
22/02/1894,814.95
23/02/1894,2113.94
24/02/1894,3562.83
25/02/1894,3022.79
26/02/1894,1745.23
27/02/1894,1193.2
28/02/1894,939.58
01/03/1894,813.16
02/03/1894,899.92
03/03/1894,1081.26
04/03/1894,913.01
05/03/1894,861.05
06/03/1894,912.55
07/03/1894,795.17
08/03/1894,746.41
09/03/1894,723.47
10/03/1894,723.43
11/03/1894,863.56
12/03/1894,1118.38
13/03/1894,1226.25
14/03/1894,1499.38
15/03/1894,1639.34
16/03/1894,1238.43
17/03/1894,934.77
18/03/1894,802.49
19/03/1894,804.92
20/03/1894,1305.99
21/03/1894,2373.74
22/03/1894,2764.95
23/03/1894,2456.79
24/03/1894,2194.7
25/03/1894,2149.49
26/03/1894,1776.1
27/03/1894,1347.76
28/03/1894,1105.98
29/03/1894,977.71
30/03/1894,920.14
31/03/1894,887.38
01/04/1894,1203.53
02/04/1894,1859.69
03/04/1894,1708.57
04/04/1894,1300.38
05/04/1894,1329.17
06/04/1894,10952.72
07/04/1894,21258.05
08/04/1894,5617.5
09/04/1894,3941.33
10/04/1894,3650.6
11/04/1894,4535.47
12/04/1894,4211.13
13/04/1894,3728.58
14/04/1894,4704.12
15/04/1894,5259.86
16/04/1894,5207.24
17/04/1894,8115.65
18/04/1894,10422.78
19/04/1894,5069.02
20/04/1894,3787.19
21/04/1894,2959.74
22/04/1894,2400.31
23/04/1894,2017.19
24/04/1894,1753.24
25/04/1894,1566.52
26/04/1894,1435.86
27/04/1894,1351.9
28/04/1894,1374.18
29/04/1894,1476.51
30/04/1894,1382.37
01/05/1894,1282.94
02/05/1894,1218.88
03/05/1894,1173.19
04/05/1894,1138.73
05/05/1894,1111.24
06/05/1894,1087.93
07/05/1894,1067.51
08/05/1894,1048.98
09/05/1894,1031.49
10/05/1894,1014.53
11/05/1894,998.45
12/05/1894,982.93
13/05/1894,967.38
14/05/1894,952.26
15/05/1894,937.39
16/05/1894,922.84
17/05/1894,908.57
18/05/1894,894.69
19/05/1894,880.84
20/05/1894,867.16
21/05/1894,853.91
22/05/1894,840.9
23/05/1894,828.16
24/05/1894,815.61
25/05/1894,803.32
26/05/1894,791.22
27/05/1894,779.41
28/05/1894,767.94
29/05/1894,756.54
30/05/1894,745.03
31/05/1894,733.98
01/06/1894,723.12
02/06/1894,712.49
03/06/1894,702.04
04/06/1894,691.85
05/06/1894,681.97
06/06/1894,672.19
07/06/1894,662.01
08/06/1894,652.4
09/06/1894,643.01
10/06/1894,633.78
11/06/1894,624.72
12/06/1894,615.79
13/06/1894,607.05
14/06/1894,598.44
15/06/1894,590.01
16/06/1894,581.7
17/06/1894,573.55
18/06/1894,565.52
19/06/1894,557.66
20/06/1894,550.06
21/06/1894,542.78
22/06/1894,845.92
23/06/1894,1385.42
24/06/1894,1108.26
25/06/1894,747.42
26/06/1894,591.83
27/06/1894,562.16
28/06/1894,550.6
29/06/1894,542.41
30/06/1894,535.41
01/07/1894,528.54
02/07/1894,520.67
03/07/1894,513.72
04/07/1894,506.07
05/07/1894,499.12
06/07/1894,492.36
07/07/1894,485.69
08/07/1894,479.18
09/07/1894,472.76
10/07/1894,466.44
11/07/1894,460.27
12/07/1894,454.2
13/07/1894,448.19
14/07/1894,442.33
15/07/1894,436.54
16/07/1894,430.87
17/07/1894,425.27
18/07/1894,419.8
19/07/1894,414.4
20/07/1894,409.05
21/07/1894,403.85
22/07/1894,398.72
23/07/1894,393.67
24/07/1894,413.77
25/07/1894,408.14
26/07/1894,402.83
27/07/1894,397.7
28/07/1894,391.96
29/07/1894,386.73
30/07/1894,381.18
31/07/1894,376
01/08/1894,370.99
02/08/1894,366.05
03/08/1894,361.29
04/08/1894,356.59
05/08/1894,351.89
06/08/1894,347.35
07/08/1894,342.85
08/08/1894,338.46
09/08/1894,334.13
10/08/1894,329.88
11/08/1894,325.72
12/08/1894,321.65
13/08/1894,317.64
14/08/1894,313.71
15/08/1894,309.82
16/08/1894,306
17/08/1894,302.33
18/08/1894,299.03
19/08/1894,295.84
20/08/1894,292.26
21/08/1894,288.42
22/08/1894,284.78
23/08/1894,281.44
24/08/1894,277.95
25/08/1894,274.67
26/08/1894,271.47
27/08/1894,268.32
28/08/1894,265.26
29/08/1894,262.22
30/08/1894,259.24
31/08/1894,256.32
01/09/1894,253.44
02/09/1894,250.74
03/09/1894,248.04
04/09/1894,245.11
05/09/1894,242.39
06/09/1894,239.77
07/09/1894,237.15
08/09/1894,234.6
09/09/1894,232.06
10/09/1894,229.6
11/09/1894,227.17
12/09/1894,224.83
13/09/1894,222.52
14/09/1894,220.16
15/09/1894,217.91
16/09/1894,215.53
17/09/1894,213.32
18/09/1894,211.47
19/09/1894,209.66
20/09/1894,207.01
21/09/1894,204.91
22/09/1894,202.77
23/09/1894,200.75
24/09/1894,198.78
25/09/1894,196.84
26/09/1894,194.87
27/09/1894,192.98
28/09/1894,191.14
29/09/1894,189.29
30/09/1894,187.49
01/10/1894,185.88
02/10/1894,184.27
03/10/1894,182.23
04/10/1894,180.54
05/10/1894,178.87
06/10/1894,177.23
07/10/1894,175.66
08/10/1894,174.05
09/10/1894,172.58
10/10/1894,170.84
11/10/1894,169.3
12/10/1894,167.79
13/10/1894,166.34
14/10/1894,164.93
15/10/1894,163.42
16/10/1894,161.9
17/10/1894,160.46
18/10/1894,159.09
19/10/1894,157.71
20/10/1894,156.35
21/10/1894,155.17
22/10/1894,154.12
23/10/1894,152.89
24/10/1894,151.46
25/10/1894,150.04
26/10/1894,148.66
27/10/1894,147.38
28/10/1894,146.17
29/10/1894,145.02
30/10/1894,143.96
31/10/1894,143.55
01/11/1894,143.43
02/11/1894,141.6
03/11/1894,140.05
04/11/1894,139.25
05/11/1894,138.03
06/11/1894,136.98
07/11/1894,141.28
08/11/1894,147.77
09/11/1894,142.24
10/11/1894,140.84
11/11/1894,139.66
12/11/1894,138.51
13/11/1894,137.33
14/11/1894,136.19
15/11/1894,135.09
16/11/1894,134
17/11/1894,132.9
18/11/1894,131.82
19/11/1894,130.77
20/11/1894,130.63
21/11/1894,131.14
22/11/1894,129.55
23/11/1894,128.12
24/11/1894,127.06
25/11/1894,129.92
26/11/1894,129.04
27/11/1894,128.13
28/11/1894,126.53
29/11/1894,125.37
30/11/1894,124.49
01/12/1894,182.19
02/12/1894,246.04
03/12/1894,144.89
04/12/1894,139.52
05/12/1894,137.6
06/12/1894,136.29
07/12/1894,135.05
08/12/1894,133.84
09/12/1894,132.64
10/12/1894,131.59
11/12/1894,130.66
12/12/1894,129.36
13/12/1894,128.14
14/12/1894,127.98
15/12/1894,128.37
16/12/1894,126.18
17/12/1894,123.95
18/12/1894,122.83
19/12/1894,122.12
20/12/1894,121.37
21/12/1894,119.88
22/12/1894,118.85
23/12/1894,118.16
24/12/1894,117.29
25/12/1894,115.99
26/12/1894,115.18
27/12/1894,114.59
28/12/1894,114.12
29/12/1894,112.94
30/12/1894,111.46
31/12/1894,110.13
01/01/1895,109.26
02/01/1895,108.72
03/01/1895,108.11
04/01/1895,106.94
05/01/1895,271.62
06/01/1895,436.84
07/01/1895,171.02
08/01/1895,146.76
09/01/1895,143.77
10/01/1895,142.39
11/01/1895,140.56
12/01/1895,139.06
13/01/1895,137.61
14/01/1895,135.99
15/01/1895,134.58
16/01/1895,133.22
17/01/1895,131.88
18/01/1895,130.58
19/01/1895,129.33
20/01/1895,128.02
21/01/1895,128.09
22/01/1895,223.85
23/01/1895,326.51
24/01/1895,157.96
25/01/1895,158.77
26/01/1895,175.88
27/01/1895,252.04
28/01/1895,408.1
29/01/1895,338.52
30/01/1895,382.15
31/01/1895,546
01/02/1895,276.55
02/02/1895,227.38
03/02/1895,221.9
04/02/1895,218.82
05/02/1895,216.17
06/02/1895,214.17
07/02/1895,558.57
08/02/1895,1830.32
09/02/1895,2903.55
10/02/1895,2572.74
11/02/1895,2019.91
12/02/1895,1322.33
13/02/1895,1082.88
14/02/1895,1855.24
15/02/1895,2905.36
16/02/1895,2450.81
17/02/1895,1547.21
18/02/1895,1100.78
19/02/1895,891.01
20/02/1895,823.31
21/02/1895,791.55
22/02/1895,773.25
23/02/1895,790.45
24/02/1895,830.77
25/02/1895,790.5
26/02/1895,746.77
27/02/1895,724.58
28/02/1895,709.95
01/03/1895,697.86
02/03/1895,686.69
03/03/1895,675.87
04/03/1895,665.34
05/03/1895,655.04
06/03/1895,645.48
07/03/1895,636.84
08/03/1895,762.1
09/03/1895,948.93
10/03/1895,783.83
11/03/1895,700.83
12/03/1895,642.38
13/03/1895,712.95
14/03/1895,855.04
15/03/1895,754.33
16/03/1895,691.88
17/03/1895,606.18
18/03/1895,583.52
19/03/1895,571.78
20/03/1895,970.25
21/03/1895,1942.22
22/03/1895,1989.99
23/03/1895,1386.28
24/03/1895,1106.95
25/03/1895,848.96
26/03/1895,732.71
27/03/1895,690.96
28/03/1895,671.55
29/03/1895,658.8
30/03/1895,648.28
31/03/1895,638.36
01/04/1895,628.46
02/04/1895,618.4
03/04/1895,609.06
04/04/1895,600.13
05/04/1895,1265.65
06/04/1895,2677.99
07/04/1895,2524.39
08/04/1895,1743.85
09/04/1895,1199
10/04/1895,917.49
11/04/1895,794.1
12/04/1895,750.56
13/04/1895,728.48
14/04/1895,713.64
15/04/1895,701.56
16/04/1895,690.56
17/04/1895,679.81
18/04/1895,669.78
19/04/1895,659.59
20/04/1895,649.39
21/04/1895,639.6
22/04/1895,629.97
23/04/1895,620.34
24/04/1895,611.19
25/04/1895,602.29
26/04/1895,593.13
27/04/1895,584.72
28/04/1895,576.07
29/04/1895,567.54
30/04/1895,558.92
01/05/1895,550.54
02/05/1895,542.43
03/05/1895,534.87
04/05/1895,526.94
05/05/1895,519.03
06/05/1895,511.45
07/05/1895,504.1
08/05/1895,497.02
09/05/1895,490.6
10/05/1895,484.1
11/05/1895,476.47
12/05/1895,469.35
13/05/1895,462.97
14/05/1895,456.78
15/05/1895,450.53
16/05/1895,444.55
17/05/1895,437.69
18/05/1895,431.37
19/05/1895,425.32
20/05/1895,419.54
21/05/1895,413.8
22/05/1895,408.57
23/05/1895,403.39
24/05/1895,397.49
25/05/1895,391.7
26/05/1895,411.07
27/05/1895,405.15
28/05/1895,399.41
29/05/1895,393.61
30/05/1895,387.71
31/05/1895,382.39
01/06/1895,377.01
02/06/1895,371.15
03/06/1895,365.83
04/06/1895,360.66
05/06/1895,355.58
06/06/1895,351.25
07/06/1895,347.08
08/06/1895,341.44
09/06/1895,336.79
10/06/1895,331.66
11/06/1895,327.09
12/06/1895,322.64
13/06/1895,318.52
14/06/1895,314.33
15/06/1895,309.94
16/06/1895,306.07
17/06/1895,301.91
18/06/1895,297.89
19/06/1895,294.14
20/06/1895,290.14
21/06/1895,286.27
22/06/1895,282.5
23/06/1895,278.82
24/06/1895,275.25
25/06/1895,271.78
26/06/1895,268.33
27/06/1895,264.98
28/06/1895,261.65
29/06/1895,258.4
30/06/1895,255.23
01/07/1895,252.1
02/07/1895,249.03
03/07/1895,245.98
04/07/1895,243.02
05/07/1895,240.08
06/07/1895,237.22
07/07/1895,234.53
08/07/1895,232.13
09/07/1895,229.44
10/07/1895,226.32
11/07/1895,223.67
12/07/1895,221.18
13/07/1895,218.48
14/07/1895,215.99
15/07/1895,213.57
16/07/1895,211.25
17/07/1895,208.84
18/07/1895,206.4
19/07/1895,204.08
20/07/1895,201.83
21/07/1895,199.62
22/07/1895,197.4
23/07/1895,195.26
24/07/1895,193.14
25/07/1895,191.07
26/07/1895,189.03
27/07/1895,187
28/07/1895,185.01
29/07/1895,183.08
30/07/1895,181.17
31/07/1895,179.28
01/08/1895,177.45
02/08/1895,175.65
03/08/1895,173.79
04/08/1895,172.07
05/08/1895,170.36
06/08/1895,168.57
07/08/1895,166.86
08/08/1895,165.22
09/08/1895,163.58
10/08/1895,162.24
11/08/1895,161.11
12/08/1895,159.27
13/08/1895,157.41
14/08/1895,155.83
15/08/1895,154.4
16/08/1895,152.85
17/08/1895,151.37
18/08/1895,149.92
19/08/1895,148.5
20/08/1895,147.11
21/08/1895,145.77
22/08/1895,144.42
23/08/1895,143.11
24/08/1895,141.81
25/08/1895,140.5
26/08/1895,139.24
27/08/1895,137.99
28/08/1895,136.74
29/08/1895,135.53
30/08/1895,134.34
31/08/1895,133.17
01/09/1895,132
02/09/1895,130.85
03/09/1895,129.71
04/09/1895,128.59
05/09/1895,127.49
06/09/1895,126.4
07/09/1895,125.33
08/09/1895,124.27
09/09/1895,123.24
10/09/1895,122.22
11/09/1895,121.22
12/09/1895,120.46
13/09/1895,119.83
14/09/1895,118.66
15/09/1895,117.68
16/09/1895,116.4
17/09/1895,115.41
18/09/1895,114.48
19/09/1895,113.55
20/09/1895,112.67
21/09/1895,111.75
22/09/1895,110.88
23/09/1895,110.02
24/09/1895,109.16
25/09/1895,108.31
26/09/1895,107.57
27/09/1895,106.85
28/09/1895,105.86
29/09/1895,105.06
30/09/1895,104.23
01/10/1895,103.47
02/10/1895,102.68
03/10/1895,101.94
04/10/1895,101.25
05/10/1895,100.5
06/10/1895,99.7
07/10/1895,98.96
08/10/1895,98.25
09/10/1895,97.53
10/10/1895,96.82
11/10/1895,96.35
12/10/1895,95.95
13/10/1895,94.93
14/10/1895,94.13
15/10/1895,93.48
16/10/1895,93.2
17/10/1895,93.3
18/10/1895,92.99
19/10/1895,91.7
20/10/1895,90.54
21/10/1895,89.78
22/10/1895,89.07
23/10/1895,88.51
24/10/1895,87.82
25/10/1895,87.2
26/10/1895,86.61
27/10/1895,86.03
28/10/1895,85.44
29/10/1895,84.86
30/10/1895,84.33
31/10/1895,83.8
01/11/1895,83.21
02/11/1895,82.65
03/11/1895,82.1
04/11/1895,81.57
05/11/1895,81.05
06/11/1895,80.52
07/11/1895,80.01
08/11/1895,79.49
09/11/1895,78.99
10/11/1895,78.47
11/11/1895,77.99
12/11/1895,77.5
13/11/1895,77
14/11/1895,76.53
15/11/1895,76.04
16/11/1895,75.6
17/11/1895,75.1
18/11/1895,74.65
19/11/1895,75.29
20/11/1895,75.9
21/11/1895,73.41
22/11/1895,72.86
23/11/1895,72.4
24/11/1895,71.97
25/11/1895,71.53
26/11/1895,71.1
27/11/1895,70.69
28/11/1895,70.52
29/11/1895,70.34
30/11/1895,69.59
01/12/1895,70.26
02/12/1895,70.77
03/12/1895,68.29
04/12/1895,67.86
05/12/1895,68.49
06/12/1895,80.69
07/12/1895,98.63
08/12/1895,110.25
09/12/1895,143.25
10/12/1895,93.28
11/12/1895,90.5
12/12/1895,89.78
13/12/1895,88.65
14/12/1895,87.53
15/12/1895,86.66
16/12/1895,85.89
17/12/1895,85.15
18/12/1895,84.39
19/12/1895,83.67
20/12/1895,82.97
21/12/1895,82.29
22/12/1895,81.6
23/12/1895,80.89
24/12/1895,80.24
25/12/1895,79.53
26/12/1895,79.41
27/12/1895,79.79
28/12/1895,78.78
29/12/1895,77.88
30/12/1895,77.73
31/12/1895,76.28
01/01/1896,75.1
02/01/1896,74.49
03/01/1896,73.96
04/01/1896,73.35
05/01/1896,72.91
06/01/1896,72.56
07/01/1896,71.76
08/01/1896,71.42
09/01/1896,71.35
10/01/1896,70.32
11/01/1896,69.95
12/01/1896,70.11
13/01/1896,154
14/01/1896,322.45
15/01/1896,336.99
16/01/1896,303.77
17/01/1896,143.49
18/01/1896,138.02
19/01/1896,291.19
20/01/1896,441.52
21/01/1896,196.18
22/01/1896,169.46
23/01/1896,165.12
24/01/1896,399.47
25/01/1896,871.3
26/01/1896,766.48
27/01/1896,844.05
28/01/1896,1561.02
29/01/1896,2009.66
30/01/1896,2043.29
31/01/1896,1285.84
01/02/1896,732.07
02/02/1896,582.91
03/02/1896,559.79
04/02/1896,549.31
05/02/1896,540.59
06/02/1896,532.1
07/02/1896,524.03
08/02/1896,516.75
09/02/1896,541.63
10/02/1896,683.69
11/02/1896,764.33
12/02/1896,593.44
13/02/1896,534.98
14/02/1896,727.56
15/02/1896,1109.28
16/02/1896,1288.39
17/02/1896,1293.71
18/02/1896,894.87
19/02/1896,690.6
20/02/1896,619
21/02/1896,703.12
22/02/1896,817.97
23/02/1896,642.5
24/02/1896,601.43
25/02/1896,591.3
26/02/1896,591.14
27/02/1896,593.05
28/02/1896,595.1
29/02/1896,640.59
01/03/1896,916.23
02/03/1896,1165.68
03/03/1896,1694.77
04/03/1896,3587.15
05/03/1896,5264.79
06/03/1896,5315.13
07/03/1896,3973.6
08/03/1896,2641
09/03/1896,1899.55
10/03/1896,1482.79
11/03/1896,1241.57
12/03/1896,1102.34
13/03/1896,1032.87
14/03/1896,990.78
15/03/1896,962.26
16/03/1896,941.01
17/03/1896,923.84
18/03/1896,908.12
19/03/1896,892.04
20/03/1896,877.38
21/03/1896,863.3
22/03/1896,849.64
23/03/1896,836.32
24/03/1896,823.16
25/03/1896,810.12
26/03/1896,797.38
27/03/1896,785.11
28/03/1896,773.01
29/03/1896,760.68
30/03/1896,748.89
31/03/1896,737.29
01/04/1896,725.9
02/04/1896,714.76
03/04/1896,703.8
04/04/1896,693.03
05/04/1896,682.45
06/04/1896,672.08
07/04/1896,661.9
08/04/1896,652.24
09/04/1896,642.78
10/04/1896,632.42
11/04/1896,622.97
12/04/1896,614.13
13/04/1896,605.55
14/04/1896,596.2
15/04/1896,587.51
16/04/1896,605.88
17/04/1896,821.44
18/04/1896,1471.06
19/04/1896,2019.8
20/04/1896,1581.29
21/04/1896,946.13
22/04/1896,691.44
23/04/1896,637.48
24/04/1896,617.86
25/04/1896,606.43
26/04/1896,596.93
27/04/1896,658.05
28/04/1896,905.19
29/04/1896,1088.92
30/04/1896,915.86
01/05/1896,697.62
02/05/1896,605.96
03/05/1896,580.53
04/05/1896,568.43
05/05/1896,559.33
06/05/1896,551
07/05/1896,543.16
08/05/1896,535.38
09/05/1896,527.38
10/05/1896,519.8
11/05/1896,512.31
12/05/1896,504.99
13/05/1896,497.79
14/05/1896,490.72
15/05/1896,483.78
16/05/1896,476.98
17/05/1896,470.35
18/05/1896,463.85
19/05/1896,457.37
20/05/1896,451.01
21/05/1896,444.64
22/05/1896,438.49
23/05/1896,432.45
24/05/1896,426.5
25/05/1896,420.72
26/05/1896,415.05
27/05/1896,409.64
28/05/1896,404.12
29/05/1896,398.42
30/05/1896,393.02
31/05/1896,412.69
01/06/1896,406.73
02/06/1896,400.8
03/06/1896,394.98
04/06/1896,389.36
05/06/1896,383.91
06/06/1896,378.4
07/06/1896,372.92
08/06/1896,367.61
09/06/1896,362.41
10/06/1896,357.36
11/06/1896,352.39
12/06/1896,347.48
13/06/1896,342.69
14/06/1896,337.99
15/06/1896,333.41
16/06/1896,328.91
17/06/1896,324.49
18/06/1896,320.11
19/06/1896,315.82
20/06/1896,311.62
21/06/1896,307.5
22/06/1896,303.46
23/06/1896,299.49
24/06/1896,295.6
25/06/1896,291.77
26/06/1896,288.02
27/06/1896,284.34
28/06/1896,280.71
29/06/1896,277.17
30/06/1896,273.69
01/07/1896,270.24
02/07/1896,266.88
03/07/1896,263.77
04/07/1896,260.74
05/07/1896,257.32
06/07/1896,254.1
07/07/1896,250.97
08/07/1896,247.99
09/07/1896,244.92
10/07/1896,242
11/07/1896,239.15
12/07/1896,236.51
13/07/1896,233.93
14/07/1896,230.83
15/07/1896,228.15
16/07/1896,225.53
17/07/1896,222.92
18/07/1896,220.47
19/07/1896,218.32
20/07/1896,215.99
21/07/1896,213.03
22/07/1896,210.63
23/07/1896,208.31
24/07/1896,205.98
25/07/1896,203.72
26/07/1896,201.51
27/07/1896,199.3
28/07/1896,197.17
29/07/1896,195.04
30/07/1896,192.97
31/07/1896,190.91
01/08/1896,188.93
02/08/1896,186.98
03/08/1896,185
04/08/1896,183.05
05/08/1896,181.16
06/08/1896,179.34
07/08/1896,177.6
08/08/1896,175.77
09/08/1896,173.94
10/08/1896,172.17
11/08/1896,170.42
12/08/1896,168.72
13/08/1896,167.04
14/08/1896,165.44
15/08/1896,163.8
16/08/1896,162.22
17/08/1896,160.62
18/08/1896,159.1
19/08/1896,157.59
20/08/1896,156.18
21/08/1896,154.94
22/08/1896,153.51
23/08/1896,151.93
24/08/1896,150.58
25/08/1896,149.29
26/08/1896,147.71
27/08/1896,146.19
28/08/1896,144.85
29/08/1896,143.57
30/08/1896,142.27
31/08/1896,140.99
01/09/1896,139.72
02/09/1896,138.49
03/09/1896,137.27
04/09/1896,136.06
05/09/1896,134.89
06/09/1896,133.71
07/09/1896,132.55
08/09/1896,131.47
09/09/1896,130.43
10/09/1896,129.3
11/09/1896,128.35
12/09/1896,127.13
13/09/1896,125.97
14/09/1896,124.9
15/09/1896,123.87
16/09/1896,122.87
17/09/1896,121.88
18/09/1896,120.85
19/09/1896,119.86
20/09/1896,118.91
21/09/1896,117.98
22/09/1896,117.01
23/09/1896,116.08
24/09/1896,115.17
25/09/1896,114.24
26/09/1896,113.38
27/09/1896,112.56
28/09/1896,111.93
29/09/1896,111.35
30/09/1896,110.29
01/10/1896,109.46
02/10/1896,108.29
03/10/1896,107.49
04/10/1896,106.76
05/10/1896,105.95
06/10/1896,105.28
07/10/1896,104.23
08/10/1896,103.46
09/10/1896,102.68
10/10/1896,101.94
11/10/1896,101.19
12/10/1896,100.47
13/10/1896,99.75
14/10/1896,99.04
15/10/1896,98.31
16/10/1896,97.6
17/10/1896,96.88
18/10/1896,96.24
19/10/1896,95.55
20/10/1896,94.87
21/10/1896,94.22
22/10/1896,93.56
23/10/1896,92.97
24/10/1896,92.4
25/10/1896,91.68
26/10/1896,91.02
27/10/1896,90.38
28/10/1896,89.79
29/10/1896,89.16
30/10/1896,88.57
31/10/1896,88.42
01/11/1896,88.31
02/11/1896,86.96
03/11/1896,86.24
04/11/1896,85.68
05/11/1896,85.11
06/11/1896,84.54
07/11/1896,83.99
08/11/1896,83.46
09/11/1896,82.9
10/11/1896,82.39
11/11/1896,81.88
12/11/1896,81.41
13/11/1896,80.84
14/11/1896,80.39
15/11/1896,79.81
16/11/1896,79.63
17/11/1896,79.7
18/11/1896,78.85
19/11/1896,77.85
20/11/1896,77.33
21/11/1896,76.85
22/11/1896,76.41
23/11/1896,75.93
24/11/1896,75.52
25/11/1896,75.1
26/11/1896,74.54
27/11/1896,74.07
28/11/1896,73.63
29/11/1896,73.2
30/11/1896,72.74
01/12/1896,72.32
02/12/1896,71.88
03/12/1896,71.44
04/12/1896,71.01
05/12/1896,70.6
06/12/1896,70.21
07/12/1896,70.34
08/12/1896,70.68
09/12/1896,69.67
10/12/1896,69.24
11/12/1896,68.46
12/12/1896,67.78
13/12/1896,67.37
14/12/1896,67.07
15/12/1896,66.77
16/12/1896,66.2
17/12/1896,65.84
18/12/1896,66.24
19/12/1896,92.74
20/12/1896,120.68
21/12/1896,79.11
22/12/1896,76.55
23/12/1896,75.75
24/12/1896,74.9
25/12/1896,74.33
26/12/1896,73.82
27/12/1896,73.32
28/12/1896,72.9
29/12/1896,72.69
30/12/1896,71.93
31/12/1896,71.15
01/01/1897,70.7
02/01/1897,70.28
03/01/1897,69.71
04/01/1897,69.14
05/01/1897,68.67
06/01/1897,68.19
07/01/1897,67.76
08/01/1897,67.29
09/01/1897,67.05
10/01/1897,67.07
11/01/1897,66.68
12/01/1897,65.94
13/01/1897,66.15
14/01/1897,66.94
15/01/1897,65
16/01/1897,66.24
17/01/1897,65.82
18/01/1897,65.14
19/01/1897,64.45
20/01/1897,63.98
21/01/1897,63.55
22/01/1897,63.12
23/01/1897,62.66
24/01/1897,62.3
25/01/1897,62.55
26/01/1897,63.44
27/01/1897,62.53
28/01/1897,60.69
29/01/1897,60.17
30/01/1897,59.84
31/01/1897,59.57
01/02/1897,59.38
02/02/1897,59.01
03/02/1897,58.51
04/02/1897,58.59
05/02/1897,57.87
06/02/1897,821.99
07/02/1897,2368.12
08/02/1897,2216.85
09/02/1897,1929.42
10/02/1897,2158.72
11/02/1897,1770.44
12/02/1897,1412.82
13/02/1897,1182.94
14/02/1897,799.57
15/02/1897,646.28
16/02/1897,616.04
17/02/1897,603.08
18/02/1897,592.52
19/02/1897,583.02
20/02/1897,573.75
21/02/1897,564.77
22/02/1897,556.18
23/02/1897,547.65
24/02/1897,539.15
25/02/1897,529.92
26/02/1897,521.78
27/02/1897,513.83
28/02/1897,505.47
01/03/1897,497.62
02/03/1897,489.95
03/03/1897,482.66
04/03/1897,475.39
05/03/1897,468.58
06/03/1897,462.4
07/03/1897,453.8
08/03/1897,447.78
09/03/1897,441.61
10/03/1897,440.25
11/03/1897,433.53
12/03/1897,426.93
13/03/1897,420.89
14/03/1897,414.57
15/03/1897,407.85
16/03/1897,401.78
17/03/1897,395.79
18/03/1897,389.88
19/03/1897,408.4
20/03/1897,401.88
21/03/1897,395.46
22/03/1897,389.21
23/03/1897,383.13
24/03/1897,376.74
25/03/1897,370.8
26/03/1897,365.63
27/03/1897,361.38
28/03/1897,355.86
29/03/1897,357.51
30/03/1897,399.47
31/03/1897,444.8
01/04/1897,396.38
02/04/1897,363.41
03/04/1897,356.46
04/04/1897,350.57
05/04/1897,345.35
06/04/1897,339.98
07/04/1897,335.08
08/04/1897,329.56
09/04/1897,324.09
10/04/1897,319.17
11/04/1897,314.35
12/04/1897,309.61
13/04/1897,305
14/04/1897,300.45
15/04/1897,296.29
16/04/1897,292.38
17/04/1897,287.95
18/04/1897,283.52
19/04/1897,279.47
20/04/1897,275.44
21/04/1897,271.63
22/04/1897,267.41
23/04/1897,263.43
24/04/1897,259.68
25/04/1897,256.01
26/04/1897,252.4
27/04/1897,248.85
28/04/1897,245.41
29/04/1897,241.99
30/04/1897,238.67
01/05/1897,235.41
02/05/1897,232.27
03/05/1897,229.78
04/05/1897,227.22
05/05/1897,223.02
06/05/1897,220.01
07/05/1897,217.09
08/05/1897,214.17
09/05/1897,211.31
10/05/1897,209.37
11/05/1897,207.46
12/05/1897,203.46
13/05/1897,200.97
14/05/1897,198.02
15/05/1897,195.44
16/05/1897,192.98
17/05/1897,190.55
18/05/1897,188.14
19/05/1897,185.79
20/05/1897,183.49
21/05/1897,181.26
22/05/1897,179.08
23/05/1897,176.88
24/05/1897,174.73
25/05/1897,172.58
26/05/1897,170.49
27/05/1897,168.44
28/05/1897,166.4
29/05/1897,164.49
30/05/1897,162.56
31/05/1897,160.66
01/06/1897,159.01
02/06/1897,157.22
03/06/1897,155.18
04/06/1897,153.33
05/06/1897,151.94
06/06/1897,150.72
07/06/1897,148.67
08/06/1897,147.33
09/06/1897,146
10/06/1897,144.11
11/06/1897,141.81
12/06/1897,140.27
13/06/1897,138.57
14/06/1897,137.06
15/06/1897,135.61
16/06/1897,134.2
17/06/1897,133
18/06/1897,131.8
19/06/1897,130.12
20/06/1897,128.96
21/06/1897,127.36
22/06/1897,126.44
23/06/1897,125.57
24/06/1897,124.42
25/06/1897,137.57
26/06/1897,157.76
27/06/1897,139.23
28/06/1897,143.7
29/06/1897,144.29
30/06/1897,195.68
01/07/1897,231.1
02/07/1897,160.17
03/07/1897,157.97
04/07/1897,156.09
05/07/1897,154.5
06/07/1897,152.45
07/07/1897,150.43
08/07/1897,148.76
09/07/1897,147.09
10/07/1897,145.14
11/07/1897,143.32
12/07/1897,141.66
13/07/1897,140.01
14/07/1897,138.42
15/07/1897,136.85
16/07/1897,135.29
17/07/1897,133.77
18/07/1897,132.27
19/07/1897,130.79
20/07/1897,129.33
21/07/1897,127.91
22/07/1897,126.49
23/07/1897,125.11
24/07/1897,123.81
25/07/1897,122.52
26/07/1897,121.11
27/07/1897,119.79
28/07/1897,118.65
29/07/1897,117.64
30/07/1897,116.47
31/07/1897,115.24
01/08/1897,114.18
02/08/1897,113.1
03/08/1897,111.44
04/08/1897,110.19
05/08/1897,109.08
06/08/1897,107.99
07/08/1897,106.87
08/08/1897,105.78
09/08/1897,104.75
10/08/1897,103.7
11/08/1897,102.67
12/08/1897,101.68
13/08/1897,100.69
14/08/1897,99.72
15/08/1897,98.76
16/08/1897,97.8
17/08/1897,96.86
18/08/1897,95.95
19/08/1897,95.04
20/08/1897,94.16
21/08/1897,93.29
22/08/1897,92.42
23/08/1897,91.56
24/08/1897,90.73
25/08/1897,89.92
26/08/1897,89.1
27/08/1897,88.35
28/08/1897,87.56
29/08/1897,86.73
30/08/1897,85.95
31/08/1897,85.19
01/09/1897,84.42
02/09/1897,83.68
03/09/1897,82.99
04/09/1897,82.3
05/09/1897,81.58
06/09/1897,80.85
07/09/1897,80.16
08/09/1897,79.47
09/09/1897,78.82
10/09/1897,78.16
11/09/1897,77.5
12/09/1897,76.87
13/09/1897,76.28
14/09/1897,75.75
15/09/1897,75.17
16/09/1897,74.55
17/09/1897,73.82
18/09/1897,73.27
19/09/1897,72.61
20/09/1897,72.04
21/09/1897,71.45
22/09/1897,70.89
23/09/1897,70.35
24/09/1897,69.81
25/09/1897,69.25
26/09/1897,68.72
27/09/1897,68.18
28/09/1897,67.67
29/09/1897,67.22
30/09/1897,68.02
01/10/1897,68.62
02/10/1897,65.8
03/10/1897,65.17
04/10/1897,64.69
05/10/1897,64.2
06/10/1897,63.75
07/10/1897,63.28
08/10/1897,62.8
09/10/1897,62.35
10/10/1897,61.89
11/10/1897,61.47
12/10/1897,61.02
13/10/1897,60.61
14/10/1897,60.33
15/10/1897,59.91
16/10/1897,59.36
17/10/1897,58.97
18/10/1897,58.52
19/10/1897,58.09
20/10/1897,57.73
21/10/1897,57.35
22/10/1897,56.92
23/10/1897,56.52
24/10/1897,56.14
25/10/1897,55.76
26/10/1897,55.38
27/10/1897,55.01
28/10/1897,54.63
29/10/1897,54.27
30/10/1897,53.93
31/10/1897,53.55
01/11/1897,53.2
02/11/1897,52.85
03/11/1897,52.53
04/11/1897,52.17
05/11/1897,51.85
06/11/1897,51.51
07/11/1897,51.2
08/11/1897,50.86
09/11/1897,50.54
10/11/1897,50.24
11/11/1897,49.93
12/11/1897,49.61
13/11/1897,49.27
14/11/1897,49.01
15/11/1897,48.75
16/11/1897,48.45
17/11/1897,48.24
18/11/1897,47.86
19/11/1897,47.5
20/11/1897,47.2
21/11/1897,46.92
22/11/1897,46.62
23/11/1897,46.35
24/11/1897,46.09
25/11/1897,45.85
26/11/1897,45.56
27/11/1897,45.31
28/11/1897,45.2
29/11/1897,45.19
30/11/1897,44.88
01/12/1897,44.94
02/12/1897,44.89
03/12/1897,44.07
04/12/1897,43.46
05/12/1897,43.42
06/12/1897,43.45
07/12/1897,42.79
08/12/1897,42.43
09/12/1897,42.18
10/12/1897,41.93
11/12/1897,41.7
12/12/1897,41.48
13/12/1897,41.23
14/12/1897,41.01
15/12/1897,40.78
16/12/1897,40.64
17/12/1897,40.53
18/12/1897,40.33
19/12/1897,39.94
20/12/1897,39.68
21/12/1897,39.49
22/12/1897,40.07
23/12/1897,40.77
24/12/1897,358.22
25/12/1897,732.55
26/12/1897,282.51
27/12/1897,209.67
28/12/1897,335.88
29/12/1897,315.92
30/12/1897,326.98
31/12/1897,455.44
01/01/1898,485.21
02/01/1898,1023.53
03/01/1898,975.89
04/01/1898,595.02
05/01/1898,574.93
06/01/1898,1056.48
07/01/1898,1359.75
08/01/1898,1288.23
09/01/1898,1026.61
10/01/1898,753.33
11/01/1898,547.43
12/01/1898,526.58
13/01/1898,518.01
14/01/1898,510.04
15/01/1898,501.15
16/01/1898,493.76
17/01/1898,485.22
18/01/1898,548.9
19/01/1898,614.22
20/01/1898,480.05
21/01/1898,469.59
22/01/1898,467.29
23/01/1898,460.19
24/01/1898,452.78
25/01/1898,445.97
26/01/1898,439.32
27/01/1898,431.95
28/01/1898,425.54
29/01/1898,419.87
30/01/1898,413.85
31/01/1898,407.24
01/02/1898,400.59
02/02/1898,394.32
03/02/1898,413.44
04/02/1898,401.57
05/02/1898,422.39
06/02/1898,452.54
07/02/1898,637.05
08/02/1898,629.05
09/02/1898,486.5
10/02/1898,690.17
11/02/1898,842.38
12/02/1898,858.48
13/02/1898,615.15
14/02/1898,485.19
15/02/1898,471.97
16/02/1898,465.48
17/02/1898,617.46
18/02/1898,846.63
19/02/1898,758.98
20/02/1898,738.18
21/02/1898,534.39
22/02/1898,803.38
23/02/1898,1312.76
24/02/1898,1124.5
25/02/1898,1056.31
26/02/1898,1027.32
27/02/1898,758.98
28/02/1898,636.08
01/03/1898,610.08
02/03/1898,1120.74
03/03/1898,7406.85
04/03/1898,13547.27
05/03/1898,4898.35
06/03/1898,3165.1
07/03/1898,2479.49
08/03/1898,2486.73
09/03/1898,1992.26
10/03/1898,1537.32
11/03/1898,1254.4
12/03/1898,1096.67
13/03/1898,1021.26
14/03/1898,976.97
15/03/1898,1195.94
16/03/1898,1615.99
17/03/1898,1420.02
18/03/1898,1156.4
19/03/1898,1076.31
20/03/1898,1264.11
21/03/1898,1392.86
22/03/1898,1284.41
23/03/1898,1486.9
24/03/1898,1808.66
25/03/1898,2355.69
26/03/1898,3443.53
27/03/1898,3638.06
28/03/1898,2876.96
29/03/1898,2106.74
30/03/1898,1620.46
31/03/1898,1336.96
01/04/1898,1175.17
02/04/1898,1074
03/04/1898,1019.89
04/04/1898,984.8
05/04/1898,959.66
06/04/1898,939.86
07/04/1898,923.26
08/04/1898,908.32
09/04/1898,893.38
10/04/1898,879.03
11/04/1898,865.4
12/04/1898,937.98
13/04/1898,1071.78
14/04/1898,994.8
15/04/1898,915.57
16/04/1898,849.4
17/04/1898,814.79
18/04/1898,811.02
19/04/1898,845
20/04/1898,845.05
21/04/1898,787.61
22/04/1898,758.23
23/04/1898,740.71
24/04/1898,733.69
25/04/1898,729.92
26/04/1898,709.88
27/04/1898,695.82
28/04/1898,684.48
29/04/1898,674.16
30/04/1898,663.96
01/05/1898,654.09
02/05/1898,644.26
03/05/1898,634.69
04/05/1898,625.25
05/05/1898,616.04
06/05/1898,607.02
07/05/1898,598.16
08/05/1898,589.47
09/05/1898,580.94
10/05/1898,572.55
11/05/1898,564.31
12/05/1898,556.2
13/05/1898,548.25
14/05/1898,540.44
15/05/1898,532.76
16/05/1898,525.22
17/05/1898,517.82
18/05/1898,510.52
19/05/1898,503.38
20/05/1898,496.37
21/05/1898,489.45
22/05/1898,482.66
23/05/1898,476.01
24/05/1898,469.44
25/05/1898,463.01
26/05/1898,456.81
27/05/1898,451.27
28/05/1898,445.57
29/05/1898,438.72
30/05/1898,433.14
31/05/1898,427.05
01/06/1898,421.49
02/06/1898,415.79
03/06/1898,410.49
04/06/1898,404.79
05/06/1898,399.36
06/06/1898,393.9
07/06/1898,413.76
08/06/1898,407.98
09/06/1898,402.18
10/06/1898,396.49
11/06/1898,391.01
12/06/1898,385.65
13/06/1898,380.12
14/06/1898,374.93
15/06/1898,369.65
16/06/1898,364.5
17/06/1898,359.51
18/06/1898,354.72
19/06/1898,350.07
20/06/1898,345.23
21/06/1898,340.55
22/06/1898,335.99
23/06/1898,331.54
24/06/1898,327.18
25/06/1898,322.91
26/06/1898,318.89
27/06/1898,314.86
28/06/1898,310.56
29/06/1898,307.92
30/06/1898,305.37
01/07/1898,298.91
02/07/1898,295.03
03/07/1898,291.56
04/07/1898,288.32
05/07/1898,284.39
06/07/1898,280.69
07/07/1898,277.2
08/07/1898,273.81
09/07/1898,270.6
10/07/1898,267.41
11/07/1898,264.03
12/07/1898,261.04
13/07/1898,258.54
14/07/1898,256.31
15/07/1898,252.75
16/07/1898,249.14
17/07/1898,246.12
18/07/1898,243.04
19/07/1898,240.25
20/07/1898,237.49
21/07/1898,234.81
22/07/1898,232.13
23/07/1898,229.55
24/07/1898,226.97
25/07/1898,224.45
26/07/1898,221.99
27/07/1898,219.58
28/07/1898,217.14
29/07/1898,214.78
30/07/1898,212.46
31/07/1898,210.2
01/08/1898,207.94
02/08/1898,205.79
03/08/1898,203.68
04/08/1898,201.41
05/08/1898,199.3
06/08/1898,197.24
07/08/1898,195.18
08/08/1898,193.17
09/08/1898,191.21
10/08/1898,189.28
11/08/1898,187.37
12/08/1898,185.5
13/08/1898,183.61
14/08/1898,181.8
15/08/1898,180.01
16/08/1898,178.27
17/08/1898,176.6
18/08/1898,174.92
19/08/1898,173.28
20/08/1898,172.1
21/08/1898,170.84
22/08/1898,169.38
23/08/1898,167.68
24/08/1898,166.54
25/08/1898,213.82
26/08/1898,263.15
27/08/1898,258.39
28/08/1898,385.68
29/08/1898,288.41
30/08/1898,206.04
31/08/1898,200.05
01/09/1898,197.46
02/09/1898,195.2
03/09/1898,193.04
04/09/1898,190.93
05/09/1898,188.86
06/09/1898,186.83
07/09/1898,184.8
08/09/1898,182.82
09/09/1898,180.87
10/09/1898,178.97
11/09/1898,177.06
12/09/1898,175.22
13/09/1898,173.39
14/09/1898,171.61
15/09/1898,169.82
16/09/1898,168.11
17/09/1898,166.37
18/09/1898,164.71
19/09/1898,163.01
20/09/1898,161.41
21/09/1898,159.78
22/09/1898,158.2
23/09/1898,156.63
24/09/1898,155.11
25/09/1898,153.59
26/09/1898,152.27
27/09/1898,150.92
28/09/1898,149.2
29/09/1898,147.84
30/09/1898,146.51
01/10/1898,145.05
02/10/1898,143.63
03/10/1898,142.29
04/10/1898,140.98
05/10/1898,139.69
06/10/1898,138.43
07/10/1898,137.15
08/10/1898,135.87
09/10/1898,134.65
10/10/1898,133.45
11/10/1898,132.26
12/10/1898,131.07
13/10/1898,129.89
14/10/1898,128.76
15/10/1898,127.65
16/10/1898,126.53
17/10/1898,125.42
18/10/1898,124.36
19/10/1898,123.29
20/10/1898,122.24
21/10/1898,121.22
22/10/1898,120.17
23/10/1898,119.17
24/10/1898,118.18
25/10/1898,117.2
26/10/1898,116.22
27/10/1898,115.27
28/10/1898,114.86
29/10/1898,114.46
30/10/1898,112.54
31/10/1898,111.59
01/11/1898,110.86
02/11/1898,110.3
03/11/1898,109.35
04/11/1898,108.1
05/11/1898,107.25
06/11/1898,106.38
07/11/1898,105.55
08/11/1898,104.74
09/11/1898,103.93
10/11/1898,103.13
11/11/1898,102.35
12/11/1898,101.58
13/11/1898,100.81
14/11/1898,100.06
15/11/1898,99.31
16/11/1898,98.57
17/11/1898,97.83
18/11/1898,97.14
19/11/1898,96.4
20/11/1898,95.69
21/11/1898,95.01
22/11/1898,94.31
23/11/1898,93.62
24/11/1898,92.95
25/11/1898,92.27
26/11/1898,91.62
27/11/1898,90.97
28/11/1898,90.33
29/11/1898,89.7
30/11/1898,89.1
01/12/1898,88.59
02/12/1898,88.15
03/12/1898,87.69
04/12/1898,86.94
05/12/1898,86.34
06/12/1898,85.47
07/12/1898,84.87
08/12/1898,84.28
09/12/1898,83.74
10/12/1898,83.17
11/12/1898,82.82
12/12/1898,82.46
13/12/1898,81.54
14/12/1898,80.99
15/12/1898,80.45
16/12/1898,79.93
17/12/1898,79.46
18/12/1898,79.44
19/12/1898,79.3
20/12/1898,78
21/12/1898,77.41
22/12/1898,76.93
23/12/1898,76.41
24/12/1898,75.92
25/12/1898,75.41
26/12/1898,74.94
27/12/1898,74.47
28/12/1898,74.08
29/12/1898,73.78
30/12/1898,73.45
31/12/1898,72.82
01/01/1899,72.19
02/01/1899,71.76
03/01/1899,71.43
04/01/1899,71.5
05/01/1899,71.8
06/01/1899,71.09
07/01/1899,70.06
08/01/1899,69.4
09/01/1899,68.9
10/01/1899,68.66
11/01/1899,68.5
12/01/1899,68.52
13/01/1899,67.8
14/01/1899,68.59
15/01/1899,128.11
16/01/1899,191.01
17/01/1899,91.96
18/01/1899,86.58
19/01/1899,85.16
20/01/1899,84.37
21/01/1899,83.91
22/01/1899,83.32
23/01/1899,82.19
24/01/1899,81.58
25/01/1899,81.06
26/01/1899,80.65
27/01/1899,80.76
28/01/1899,80.35
29/01/1899,79.8
30/01/1899,110.85
31/01/1899,146.36
01/02/1899,93.6
02/02/1899,90.02
03/02/1899,89.22
04/02/1899,89.2
05/02/1899,132.34
06/02/1899,211.87
07/02/1899,171.2
08/02/1899,115.87
09/02/1899,112.03
10/02/1899,110.6
11/02/1899,109.16
12/02/1899,107.99
13/02/1899,106.76
14/02/1899,105.51
15/02/1899,104.39
16/02/1899,103.22
17/02/1899,102.11
18/02/1899,101.01
19/02/1899,99.91
20/02/1899,98.84
21/02/1899,97.78
22/02/1899,96.75
23/02/1899,95.75
24/02/1899,94.76
25/02/1899,93.86
26/02/1899,93.02
27/02/1899,92.02
28/02/1899,90.96
01/03/1899,90.15
02/03/1899,90.1
03/03/1899,143.33
04/03/1899,455.72
05/03/1899,1011.4
06/03/1899,1585.19
07/03/1899,2598.74
08/03/1899,3692.14
09/03/1899,4310.43
10/03/1899,4025.85
11/03/1899,3274.95
12/03/1899,2746.56
13/03/1899,2196.65
14/03/1899,1740.29
15/03/1899,1611.89
16/03/1899,1339.73
17/03/1899,1179.5
18/03/1899,1071.07
19/03/1899,977.3
20/03/1899,919.55
21/03/1899,886.92
22/03/1899,864.97
23/03/1899,848.11
24/03/1899,833.45
25/03/1899,819.61
26/03/1899,806.05
27/03/1899,793.04
28/03/1899,780.4
29/03/1899,767.98
30/03/1899,755.8
31/03/1899,743.84
01/04/1899,732.12
02/04/1899,720.59
03/04/1899,709.34
04/04/1899,698.5
05/04/1899,687.74
06/04/1899,677.55
07/04/1899,668.01
08/04/1899,656.64
09/04/1899,645.7
10/04/1899,636.78
11/04/1899,640.85
12/04/1899,649.22
13/04/1899,619.37
14/04/1899,607.83
15/04/1899,596.46
16/04/1899,587.16
17/04/1899,578.06
18/04/1899,681.73
19/04/1899,1021.01
20/04/1899,1257.36
21/04/1899,1099.89
22/04/1899,913.33
23/04/1899,1215.83
24/04/1899,1279.77
25/04/1899,894.41
26/04/1899,670.74
27/04/1899,622.19
28/04/1899,604.03
29/04/1899,593.05
30/04/1899,583.76
01/05/1899,574.68
02/05/1899,566.01
03/05/1899,557.57
04/05/1899,549.26
05/05/1899,541.08
06/05/1899,533.09
07/05/1899,525.34
08/05/1899,517.97
09/05/1899,510.57
10/05/1899,503.07
11/05/1899,495.76
12/05/1899,488.45
13/05/1899,481.39
14/05/1899,474.27
15/05/1899,467.69
16/05/1899,461.23
17/05/1899,454.41
18/05/1899,447.53
19/05/1899,441.04
20/05/1899,434.9
21/05/1899,428.84
22/05/1899,422.73
23/05/1899,416.71
24/05/1899,410.9
25/05/1899,405.2
26/05/1899,399.57
27/05/1899,394.02
28/05/1899,413.61
29/05/1899,407.5
30/05/1899,401.38
31/05/1899,395.38
01/06/1899,389.5
02/06/1899,383.73
03/06/1899,378.09
04/06/1899,372.54
05/06/1899,367.11
06/06/1899,361.78
07/06/1899,356.56
08/06/1899,351.44
09/06/1899,346.42
10/06/1899,341.48
11/06/1899,336.64
12/06/1899,331.91
13/06/1899,327.26
14/06/1899,322.7
15/06/1899,318.23
16/06/1899,313.85
17/06/1899,309.54
18/06/1899,305.3
19/06/1899,301.15
20/06/1899,297.08
21/06/1899,293.48
22/06/1899,290.42
23/06/1899,286.43
24/06/1899,281.78
25/06/1899,277.9
26/06/1899,274.26
27/06/1899,270.63
28/06/1899,267.11
29/06/1899,263.67
30/06/1899,260.31
