Level from Date,Gauge: 076 UB Barron R at Picnic Crossing GS (110003a): Downstream Flow (ML.day^-1)
01/01/2018,0.68
02/01/2018,0.68
03/01/2018,0.69
04/01/2018,0.73
05/01/2018,0.73
06/01/2018,0.74
07/01/2018,0.75
08/01/2018,0.75
09/01/2018,0.74
10/01/2018,0.74
11/01/2018,0.74
12/01/2018,0.74
13/01/2018,0.73
14/01/2018,0.72
15/01/2018,0.71
16/01/2018,0.71
17/01/2018,0.71
18/01/2018,0.75
19/01/2018,0.84
20/01/2018,0.94
21/01/2018,0.86
22/01/2018,0.81
23/01/2018,0.79
24/01/2018,0.96
25/01/2018,1.19
26/01/2018,1.27
27/01/2018,1.27
28/01/2018,1.29
29/01/2018,1.2
30/01/2018,1.13
31/01/2018,1.08
01/02/2018,1.05
02/02/2018,1.02
03/02/2018,0.98
04/02/2018,0.95
05/02/2018,0.94
06/02/2018,1.9
07/02/2018,2.76
08/02/2018,2.11
09/02/2018,1.7
10/02/2018,1.53
11/02/2018,1.42
12/02/2018,1.32
13/02/2018,1.25
14/02/2018,1.2
15/02/2018,1.16
16/02/2018,1.13
17/02/2018,1.11
18/02/2018,1.11
19/02/2018,1.14
20/02/2018,1.12
21/02/2018,1.09
22/02/2018,1.07
23/02/2018,1.07
24/02/2018,1.06
25/02/2018,1.07
26/02/2018,1.07
27/02/2018,1.07
28/02/2018,1.08
01/03/2018,1.17
02/03/2018,1.18
03/03/2018,1.12
04/03/2018,1.09
05/03/2018,1.07
06/03/2018,1.07
07/03/2018,1.16
08/03/2018,1.45
09/03/2018,2.82
10/03/2018,3.71
11/03/2018,3.41
12/03/2018,2.46
13/03/2018,2.06
14/03/2018,1.82
15/03/2018,1.68
16/03/2018,1.59
17/03/2018,1.51
18/03/2018,1.45
19/03/2018,1.42
20/03/2018,1.4
21/03/2018,1.38
22/03/2018,1.35
23/03/2018,1.41
24/03/2018,1.45
25/03/2018,1.46
26/03/2018,1.7
27/03/2018,2.59
28/03/2018,3.01
29/03/2018,2.28
30/03/2018,2.02
31/03/2018,1.81
01/04/2018,1.69
02/04/2018,1.61
03/04/2018,1.55
04/04/2018,1.5
05/04/2018,1.45
06/04/2018,1.47
07/04/2018,1.46
08/04/2018,1.43
09/04/2018,1.4
10/04/2018,1.37
11/04/2018,1.34
12/04/2018,1.32
13/04/2018,1.3
14/04/2018,1.29
15/04/2018,1.28
16/04/2018,1.26
17/04/2018,1.27
18/04/2018,1.27
19/04/2018,1.25
20/04/2018,1.24
21/04/2018,1.23
22/04/2018,1.21
23/04/2018,1.2
24/04/2018,1.2
25/04/2018,1.19
26/04/2018,1.18
27/04/2018,1.18
28/04/2018,1.17
29/04/2018,1.16
30/04/2018,1.16
01/05/2018,1.16
02/05/2018,1.16
03/05/2018,1.16
04/05/2018,1.15
05/05/2018,1.14
06/05/2018,1.13
07/05/2018,1.12
08/05/2018,1.13
09/05/2018,1.13
10/05/2018,1.12
11/05/2018,1.11
12/05/2018,1.11
13/05/2018,1.09
14/05/2018,1.08
15/05/2018,1.08
16/05/2018,1.08
17/05/2018,1.08
18/05/2018,1.09
19/05/2018,1.09
20/05/2018,1.09
21/05/2018,1.1
22/05/2018,1.09
23/05/2018,1.08
24/05/2018,1.07
25/05/2018,1.07
26/05/2018,1.07
27/05/2018,1.07
28/05/2018,1.08
29/05/2018,1.08
30/05/2018,1.08
31/05/2018,1.07
01/06/2018,1.06
02/06/2018,1.05
03/06/2018,1.04
04/06/2018,1.03
05/06/2018,1.03
06/06/2018,1.03
07/06/2018,1.02
08/06/2018,1.02
09/06/2018,1.02
10/06/2018,1.02
11/06/2018,1.02
12/06/2018,1.02
13/06/2018,1.01
14/06/2018,1.01
15/06/2018,1
16/06/2018,1
17/06/2018,0.99
18/06/2018,0.98
19/06/2018,0.98
20/06/2018,0.98
21/06/2018,0.98
22/06/2018,0.98
23/06/2018,0.98
24/06/2018,0.98
25/06/2018,1
26/06/2018,1.01
27/06/2018,1.01
28/06/2018,1.01
29/06/2018,1.03
30/06/2018,1.04
01/07/2018,1.05
02/07/2018,1.07
03/07/2018,1.08
04/07/2018,1.06
05/07/2018,1.05
06/07/2018,1.03
07/07/2018,1.02
08/07/2018,1.01
09/07/2018,1.01
10/07/2018,1
11/07/2018,1
12/07/2018,0.99
13/07/2018,0.99
14/07/2018,0.98
15/07/2018,0.97
16/07/2018,0.96
17/07/2018,0.96
18/07/2018,0.96
19/07/2018,0.97
20/07/2018,0.97
21/07/2018,0.96
22/07/2018,0.94
23/07/2018,0.94
24/07/2018,0.94
25/07/2018,0.95
26/07/2018,0.95
27/07/2018,0.95
28/07/2018,0.94
29/07/2018,0.93
30/07/2018,0.92
31/07/2018,0.93
01/08/2018,0.93
02/08/2018,0.93
03/08/2018,0.92
04/08/2018,0.92
05/08/2018,0.91
06/08/2018,0.9
07/08/2018,0.91
08/08/2018,0.91
09/08/2018,0.91
10/08/2018,0.91
11/08/2018,0.9
12/08/2018,0.88
13/08/2018,0.87
14/08/2018,0.88
15/08/2018,0.87
16/08/2018,0.87
17/08/2018,0.87
18/08/2018,0.87
19/08/2018,0.84
20/08/2018,0.83
21/08/2018,0.84
22/08/2018,0.85
23/08/2018,0.85
24/08/2018,0.85
25/08/2018,0.84
26/08/2018,0.83
27/08/2018,0.83
28/08/2018,0.83
29/08/2018,0.83
30/08/2018,0.84
31/08/2018,0.84
01/09/2018,0.83
02/09/2018,0.81
03/09/2018,0.8
04/09/2018,0.8
05/09/2018,0.82
06/09/2018,0.81
07/09/2018,0.81
08/09/2018,0.81
09/09/2018,0.8
10/09/2018,0.78
11/09/2018,0.79
12/09/2018,0.81
13/09/2018,0.81
14/09/2018,0.81
15/09/2018,0.81
16/09/2018,0.8
17/09/2018,0.77
18/09/2018,0.78
19/09/2018,0.79
20/09/2018,0.78
21/09/2018,0.78
22/09/2018,0.79
23/09/2018,0.77
24/09/2018,0.76
25/09/2018,0.78
26/09/2018,0.79
27/09/2018,0.78
28/09/2018,0.78
29/09/2018,0.78
30/09/2018,0.77
01/10/2018,0.75
02/10/2018,0.75
03/10/2018,0.77
04/10/2018,0.77
05/10/2018,0.78
06/10/2018,0.78
07/10/2018,0.76
08/10/2018,0.74
09/10/2018,0.74
10/10/2018,0.76
11/10/2018,0.77
12/10/2018,0.75
13/10/2018,0.74
14/10/2018,0.73
15/10/2018,0.76
16/10/2018,0.79
17/10/2018,0.79
18/10/2018,0.78
19/10/2018,0.78
20/10/2018,0.78
21/10/2018,0.76
22/10/2018,0.73
23/10/2018,0.73
24/10/2018,0.75
25/10/2018,0.74
26/10/2018,0.74
27/10/2018,0.73
28/10/2018,0.73
29/10/2018,0.7
30/10/2018,0.68
31/10/2018,0.71
01/11/2018,0.72
02/11/2018,0.72
03/11/2018,0.72
04/11/2018,0.72
05/11/2018,0.73
06/11/2018,0.73
07/11/2018,0.74
08/11/2018,0.73
09/11/2018,0.72
10/11/2018,0.72
11/11/2018,0.71
12/11/2018,0.71
13/11/2018,0.71
14/11/2018,0.73
15/11/2018,0.73
16/11/2018,0.72
17/11/2018,0.71
18/11/2018,0.7
19/11/2018,0.69
20/11/2018,0.66
21/11/2018,0.7
22/11/2018,0.7
23/11/2018,0.71
24/11/2018,0.77
25/11/2018,0.8
26/11/2018,0.77
27/11/2018,0.75
28/11/2018,0.72
29/11/2018,0.71
30/11/2018,0.71
01/12/2018,0.71
02/12/2018,0.69
03/12/2018,0.66
04/12/2018,0.68
05/12/2018,0.72
06/12/2018,0.75
07/12/2018,0.79
08/12/2018,0.79
09/12/2018,0.81
10/12/2018,0.91
11/12/2018,1.16
12/12/2018,1.02
13/12/2018,0.93
14/12/2018,0.92
15/12/2018,0.9
16/12/2018,0.9
17/12/2018,1
18/12/2018,0.92
19/12/2018,0.87
20/12/2018,0.84
21/12/2018,0.82
22/12/2018,0.81
23/12/2018,0.83
24/12/2018,0.86
25/12/2018,1.38
26/12/2018,1.53
27/12/2018,1.64
28/12/2018,1.97
29/12/2018,1.73
30/12/2018,1.7
31/12/2018,2.1
