Date,"WR Barron River at Picnic Crossing (GS110003A): Temperatures (v.2, deg C) for all Upper Barron sites (Goonara Ck to Picnic Crossing)"
01/07/2018,19.95
02/07/2018,19.5
03/07/2018,19.57
04/07/2018,19.37
05/07/2018,18.95
06/07/2018,18.79
07/07/2018,18.81
08/07/2018,19.39
09/07/2018,19.09
10/07/2018,17.9
11/07/2018,17.2
12/07/2018,17.17
13/07/2018,18.23
14/07/2018,18.36
15/07/2018,18.7
16/07/2018,18.98
17/07/2018,19.2
18/07/2018,19.4
19/07/2018,19.18
20/07/2018,19.51
21/07/2018,19.53
22/07/2018,19.63
23/07/2018,19.72
24/07/2018,19.59
25/07/2018,19.63
26/07/2018,19.25
27/07/2018,18.87
28/07/2018,18.8
29/07/2018,18.74
30/07/2018,19.25
31/07/2018,19.07
01/08/2018,18.87
02/08/2018,18.94
03/08/2018,19.32
04/08/2018,19.86
05/08/2018,19.81
06/08/2018,19.99
07/08/2018,20.36
08/08/2018,20.66
09/08/2018,20
10/08/2018,19.06
11/08/2018,18.24
12/08/2018,18.18
13/08/2018,18.09
14/08/2018,18.37
15/08/2018,18.06
16/08/2018,18.65
17/08/2018,19.22
18/08/2018,19.86
19/08/2018,19.74
20/08/2018,18.45
21/08/2018,17.15
22/08/2018,16.55
23/08/2018,17.21
24/08/2018,18.43
25/08/2018,19.22
26/08/2018,19.65
27/08/2018,19.86
28/08/2018,19.71
29/08/2018,19.37
30/08/2018,19.27
31/08/2018,19.45
01/09/2018,22.06
02/09/2018,22.88
03/09/2018,22.56
04/09/2018,22.21
05/09/2018,21.73
06/09/2018,21.29
07/09/2018,21.83
08/09/2018,22.41
09/09/2018,22.99
10/09/2018,22.52
11/09/2018,21.86
12/09/2018,21.41
13/09/2018,21.64
14/09/2018,21.86
15/09/2018,22.14
16/09/2018,22.41
17/09/2018,22.47
18/09/2018,22.43
19/09/2018,22.17
20/09/2018,22.15
21/09/2018,21.82
22/09/2018,21.79
23/09/2018,21.68
24/09/2018,21.67
25/09/2018,21.51
26/09/2018,21.5
27/09/2018,21.3
28/09/2018,21.03
29/09/2018,21.04
30/09/2018,21.47
01/10/2018,21.83
02/10/2018,21.88
03/10/2018,21.45
04/10/2018,21.47
05/10/2018,21.92
06/10/2018,22.59
07/10/2018,23.67
08/10/2018,24.01
09/10/2018,24.54
10/10/2018,24.48
11/10/2018,24.26
12/10/2018,24.28
13/10/2018,24.45
14/10/2018,24.96
15/10/2018,25.27
16/10/2018,25.31
17/10/2018,25.6
18/10/2018,25.59
19/10/2018,25.42
20/10/2018,25.16
21/10/2018,25.51
22/10/2018,26.21
23/10/2018,26.32
24/10/2018,26.18
25/10/2018,25.27
26/10/2018,25.25
27/10/2018,24.89
28/10/2018,25.62
29/10/2018,25.8
30/10/2018,26.6
31/10/2018,26.54
01/11/2018,26.47
02/11/2018,25.86
03/11/2018,25.16
04/11/2018,25.15
05/11/2018,25.4
06/11/2018,25.98
07/11/2018,25.98
08/11/2018,26
09/11/2018,25.51
10/11/2018,25.6
11/11/2018,25.45
12/11/2018,25.56
13/11/2018,24.92
14/11/2018,24.49
15/11/2018,24.39
16/11/2018,24.73
17/11/2018,25.02
18/11/2018,24.92
19/11/2018,24.81
20/11/2018,24.75
21/11/2018,25.11
22/11/2018,25.81
23/11/2018,26.36
24/11/2018,27.73
25/11/2018,28.63
26/11/2018,29.8
27/11/2018,30.3
28/11/2018,30.55
29/11/2018,30.39
30/11/2018,29.93
01/12/2018,26.15
02/12/2018,26.82
03/12/2018,27.72
04/12/2018,27.95
05/12/2018,27.65
06/12/2018,26.91
07/12/2018,25.96
08/12/2018,24.61
09/12/2018,23.68
10/12/2018,23.32
11/12/2018,24.28
12/12/2018,25.33
13/12/2018,26.46
14/12/2018,25.99
15/12/2018,25.48
16/12/2018,25.41
17/12/2018,25.76
18/12/2018,26.53
19/12/2018,26.65
20/12/2018,27.31
21/12/2018,27.36
22/12/2018,27.23
23/12/2018,27.08
24/12/2018,25.99
25/12/2018,25.02
26/12/2018,24.16
27/12/2018,24.52
28/12/2018,24.61
29/12/2018,24.52
30/12/2018,24.43
31/12/2018,24.33
01/01/2019,24.42
02/01/2019,24.75
03/01/2019,25.15
04/01/2019,25.15
05/01/2019,25.12
06/01/2019,25.02
07/01/2019,25.03
08/01/2019,25.42
09/01/2019,26.06
10/01/2019,26.72
11/01/2019,26.35
12/01/2019,25.35
13/01/2019,24.41
14/01/2019,24.01
15/01/2019,24.33
16/01/2019,24.79
17/01/2019,24.93
18/01/2019,25.06
19/01/2019,24.96
20/01/2019,24.91
21/01/2019,24.43
22/01/2019,24.36
23/01/2019,24.32
24/01/2019,24.89
25/01/2019,24.36
26/01/2019,23.83
27/01/2019,23.41
28/01/2019,23.89
29/01/2019,24.58
30/01/2019,24.63
31/01/2019,25.02
01/02/2019,24.95
02/02/2019,25.15
03/02/2019,24.95
04/02/2019,25.22
05/02/2019,25.42
06/02/2019,25.91
07/02/2019,25.71
08/02/2019,25.68
09/02/2019,25.68
10/02/2019,26.29
11/02/2019,26.78
12/02/2019,27.01
13/02/2019,26.83
14/02/2019,26.86
15/02/2019,26.79
16/02/2019,26.59
17/02/2019,26.68
18/02/2019,26.23
19/02/2019,26.73
20/02/2019,26.43
21/02/2019,27.76
22/02/2019,27.22
23/02/2019,26.89
24/02/2019,25.11
25/02/2019,24.58
26/02/2019,23.99
27/02/2019,24.01
28/02/2019,23.89
01/03/2019,22.66
02/03/2019,22.09
03/03/2019,22.56
04/03/2019,22.46
05/03/2019,22.95
06/03/2019,23.57
07/03/2019,24.36
08/03/2019,24.78
09/03/2019,24.72
10/03/2019,24.67
11/03/2019,24.56
12/03/2019,24.31
13/03/2019,24.49
14/03/2019,24.62
15/03/2019,24.88
16/03/2019,24.59
17/03/2019,24.47
18/03/2019,24.04
19/03/2019,23.78
20/03/2019,22.86
21/03/2019,22.08
22/03/2019,21.37
23/03/2019,22.05
24/03/2019,23.21
25/03/2019,24.09
26/03/2019,23.94
27/03/2019,24.14
28/03/2019,24.54
29/03/2019,25.01
30/03/2019,24.93
31/03/2019,24.59
01/04/2019,24.2
02/04/2019,23.53
03/04/2019,23.2
04/04/2019,22.86
05/04/2019,22.7
06/04/2019,22.33
07/04/2019,22.04
08/04/2019,21.76
09/04/2019,21.65
10/04/2019,21.85
11/04/2019,21.81
12/04/2019,21.72
13/04/2019,21.54
14/04/2019,21.37
15/04/2019,21.37
16/04/2019,21.08
17/04/2019,21.1
18/04/2019,20.85
19/04/2019,20.72
20/04/2019,20.99
21/04/2019,21.5
22/04/2019,22.23
23/04/2019,22.54
24/04/2019,22.94
25/04/2019,23.18
26/04/2019,23.37
27/04/2019,23.27
28/04/2019,22.86
29/04/2019,22.24
30/04/2019,21.81
01/05/2019,21.66
02/05/2019,22.02
03/05/2019,21.92
04/05/2019,22.07
05/05/2019,21.73
06/05/2019,21.59
07/05/2019,21.04
08/05/2019,20.39
09/05/2019,20.28
10/05/2019,20.65
11/05/2019,21.65
12/05/2019,21.59
13/05/2019,21.01
14/05/2019,20.76
15/05/2019,21.23
16/05/2019,21.98
17/05/2019,21.88
18/05/2019,21.67
19/05/2019,21.4
20/05/2019,21.04
21/05/2019,20.46
22/05/2019,20.18
23/05/2019,20.27
24/05/2019,20.67
25/05/2019,20.91
26/05/2019,20.95
27/05/2019,20.95
28/05/2019,20.59
29/05/2019,20.47
30/05/2019,20.37
31/05/2019,20.07
01/06/2019,18.81
02/06/2019,18.81
03/06/2019,18.97
04/06/2019,18.9
05/06/2019,17.96
06/06/2019,16.89
07/06/2019,16.36
08/06/2019,17.44
09/06/2019,18.85
10/06/2019,20.06
11/06/2019,20.46
12/06/2019,20.14
13/06/2019,19.97
14/06/2019,19.83
15/06/2019,19.73
16/06/2019,19.53
17/06/2019,19.35
18/06/2019,19.25
19/06/2019,18.97
20/06/2019,18.36
21/06/2019,17.91
22/06/2019,17.26
23/06/2019,17.63
24/06/2019,17.66
25/06/2019,18.32
26/06/2019,18.22
27/06/2019,18.73
28/06/2019,19.08
29/06/2019,19.54
30/06/2019,19.34
