{
  "plugin": "mary_river_turtles",
  "spatial_agg": {
    "high": [75, 100],
    "moderate": [50, 74],
    "low": [0, 49]
  },
  "nodes": [
    {
      "meta_data": {
        "name": "node 1"
      },
      "data": {
        "depth": ".\\data\\sample\\Site 1 Depth 10 Years.csv",
        "rainfall": ".\\data\\sample\\Site 1 Rainfall 10 Years.csv"
      },
      "parameters": {
        "partnering_event": {
          "season": {
            "start": {
              "day": 1,
              "month": 6
            },
            "end": {
              "day": 30,
              "month": 10
            }
          },
          "CTF": 0,
          "amount_above_CTF": 0.1
        },
        "rainfall_event": {
          "rainfall": 10,
          "days_since_partnering": 14
        },
        "stable_water_level": {
          "duration_days": 52,
          "nests_inundated_curve": [
            [0, 0],
            [2.5, 20],
            [3.8, 50],
            [5.7, 80],
            [14, 100]
          ],
          "inundation_risk_curve": {
            "high": [75, 100],
            "moderate": [50, 74],
            "low": [0, 49]
          },
          "inundation_risk_threshold": 50
        }
      },
      "assessment": {
        "yearly_agg": {
          "comparison": "gte",
          "num_successes": 1,
          "start_month": "january"
        },
        "daily_agg": { "comparison": "lte", "criteria": "median" },
        "temporal_agg": {
          "num_years": 4,
          "comparison": "gte",
          "threshold": 1
        }
      }
    }
  ]
}
