{
  "plugin": "fish_barriers_and_connectivity",
  "spatial_agg": {
    "high": [75, 100],
    "moderate": [50, 74],
    "low": [0, 49]
  },
  "nodes": [
    {
      "meta_data": {
        "name": "node 1"
      },
      "parameters": {
        "global_params": {
          "swim_speed": 0.1,
          "upstream_start_AMTD_km": 50,
          "downstream_end_AMTD_km": 0,
          "consider_downstream_movement": true,
          "downstream_season": {
            "start": { "day": 1, "month": 7 },
            "end": { "day": 31, "month": 10 }
          },
          "consider_upstream_movement": true,
          "upstream_season": {
            "start": { "day": 1, "month": 11 },
            "end": { "day": 28, "month": 2 }
          }
        },
        "barriers": [
          {
            "name": "Barrier 1",
            "AMTD_km": 60,
            "data": {
              "flow": ".\\data\\sample\\Site 1 Flow Single Year.csv"
            },
            "velocity_params": {
              "slope": 0.0005,
              "width_m": 50,
              "roughness": 0.035
            },
            "downstream_reqs": {
              "drownout": 10,
              "dur": 3
            },
            "upstream_reqs": {
              "drownout": 15,
              "dur": 5
            }
          },
          {
            "name": "Barrier 2",
            "AMTD_km": 30,
            "data": {
              "flow": ".\\data\\sample\\Site 1 Flow Single Year.csv"
            },
            "velocity_params": {
              "slope": 0.0005,
              "width_m": 50,
              "roughness": 0.035
            },
            "downstream_reqs": {
              "drownout": 1000,
              "dur": 3
            },
            "upstream_reqs": {
              "drownout": 1500,
              "dur": 5
            }
          },
          {
            "name": "Barrier 3",
            "AMTD_km": 10,
            "data": {
              "flow": ".\\data\\sample\\Site 1 Flow Single Year.csv"
            },
            "velocity_params": {
              "slope": 0.0005,
              "width_m": 50,
              "roughness": 0.035
            },
            "downstream_reqs": {
              "drownout": 10,
              "dur": 3
            },
            "upstream_reqs": {
              "drownout": 15,
              "dur": 5
            }
          }
        ]
      },
      "assessment": {
        "yearly_agg": {
          "comparison": "gte",
          "num_successes": 1,
          "start_month": "january"
        },
        "daily_agg": { "comparison": "lte", "criteria": "median" },
        "temporal_agg": {
          "num_years": 4,
          "comparison": "gte",
          "threshold": 1
        }
      }
    }
  ]
}
