{
  "plugin": "offshore_reef_fishery",
  "spatial_agg": {
    "high": [75, 100],
    "moderate": [50, 74],
    "low": [0, 49]
  },
  "nodes": [
    {
      "meta_data": {
        "name": "node 1"
      },
      "data": {
        "flow": ".\\data\\sample\\Site 1 Flow.csv"
      },
      "parameters": {
        "constants": {
          "a": 12120.44,
          "b": 3312455.74,
          "c": -210028.55,
          "d": 16.53,
          "f": 190548.16,
          "m": 1.08,
          "g": 1083205.75
        },
        "flow_parameters": {
          "high_flow_year_threshold": 100000,
          "season": {
            "start": { "day": 1, "month": 1 },
            "end": { "day": 31, "month": 12 }
          }
        }
      },
      "assessment": {
        "yearly_agg": {
          "comparison": "gte",
          "num_successes": 1,
          "start_month": "january"
        },
        "daily_agg": { "comparison": "lte", "criteria": "median" },
        "yearly_conversion": {
          "comparison": "gte",
          "criteria": "median",
          "threshold": null
        },
        "temporal_agg": {
          "num_years": 4,
          "comparison": "gte",
          "threshold": 1
        }
      }
    }
  ]
}
