{
  "plugin": "turtle",
  "spatial_agg": {
    "high": [75, 100],
    "moderate": [50, 74],
    "low": [0, 49]
  },
  "nodes": [
    {
      "meta_data": {
        "name": "node 1"
      },
      "default_data": {
        "flow": ".\\data\\sample\\Site 1 Flow Single Year.csv"
      },
      "data": {
        "flow": ".\\data\\sample\\Site 1 Flow Single Year.csv"
      },
      "parameters": {
        "flow_params": {
          "flow_threshold": 5,
          "use_ARI": true,
          "ARI": 5,
          "use_default_data": true,
          "drying_period": 30,
          "aestivation_period": 30
        }
      },
      "assessment": {
        "yearly_agg": {
          "comparison": "gte",
          "num_successes": 1,
          "start_month": "january"
        },
        "daily_agg": { "comparison": "lte", "criteria": "median" },
        "temporal_agg": {
          "num_years": 4,
          "comparison": "gte",
          "threshold": 1
        }
      }
    },
    {
      "meta_data": {
        "name": "node 2"
      },
      "default_data": {
        "flow": ".\\data\\sample\\Site 1 Flow Single Year.csv"
      },
      "data": {
        "flow": ".\\data\\sample\\Site 1 Flow.csv"
      },
      "parameters": {
        "flow_params": {
          "flow_threshold": 5,
          "use_ARI": true,
          "ARI": 5,
          "use_default_data": false,
          "drying_period": 30,
          "aestivation_period": 30
        }
      },
      "assessment": {
        "yearly_agg": {
          "comparison": "gte",
          "num_successes": 1,
          "start_month": "january"
        },
        "daily_agg": { "comparison": "lte", "criteria": "median" },
        "temporal_agg": {
          "num_years": 4,
          "comparison": "gte",
          "threshold": 1
        }
      }
    }
  ]
}
